Final.vcd
$date
	Thu Jun 08 21:41:20 2023
$end
$version
	Icarus Verilog
$end
$timescale
	10ps
$end
$scope module Final_tb $end
$var wire 1 ! mem_write_I $end
$var wire 1 " mem_write_D $end
$var wire 128 # mem_wdata_I [127:0] $end
$var wire 128 $ mem_wdata_D [127:0] $end
$var wire 1 % mem_ready_I $end
$var wire 1 & mem_ready_D $end
$var wire 1 ' mem_read_I $end
$var wire 1 ( mem_read_D $end
$var wire 128 ) mem_rdata_I [127:0] $end
$var wire 128 * mem_rdata_D [127:0] $end
$var wire 28 + mem_addr_I [31:4] $end
$var wire 28 , mem_addr_D [31:4] $end
$var wire 1 - finish $end
$var wire 8 . error_num [7:0] $end
$var wire 16 / duration [15:0] $end
$var wire 32 0 PC [31:0] $end
$var wire 1 1 DCACHE_wen $end
$var wire 32 2 DCACHE_wdata [31:0] $end
$var wire 30 3 DCACHE_addr [29:0] $end
$var reg 1 4 clk $end
$var reg 1 5 rst_n $end
$scope module chip0 $end
$var wire 1 6 ICACHE_ren $end
$var wire 32 7 ICACHE_wdata [31:0] $end
$var wire 1 8 ICACHE_wen $end
$var wire 1 4 clk $end
$var wire 128 9 mem_rdata_D_wire [127:0] $end
$var wire 128 : mem_rdata_I_wire [127:0] $end
$var wire 1 ; mem_ready_D_wire $end
$var wire 1 < mem_ready_I_wire $end
$var wire 1 5 rst_n $end
$var wire 1 ! mem_write_I $end
$var wire 1 " mem_write_D $end
$var wire 128 = mem_wdata_I [127:0] $end
$var wire 128 > mem_wdata_D [127:0] $end
$var wire 1 % mem_ready_I $end
$var wire 1 & mem_ready_D $end
$var wire 1 ' mem_read_I $end
$var wire 1 ( mem_read_D $end
$var wire 128 ? mem_rdata_I [127:0] $end
$var wire 128 @ mem_rdata_D [127:0] $end
$var wire 28 A mem_addr_I [31:4] $end
$var wire 28 B mem_addr_D [31:4] $end
$var wire 32 C PC [31:0] $end
$var wire 1 D ICACHE_stall $end
$var wire 32 E ICACHE_rdata [31:0] $end
$var wire 30 F ICACHE_addr [29:0] $end
$var wire 1 1 DCACHE_wen $end
$var wire 32 G DCACHE_wdata [31:0] $end
$var wire 1 H DCACHE_stall $end
$var wire 1 I DCACHE_ren $end
$var wire 32 J DCACHE_rdata [31:0] $end
$var wire 30 K DCACHE_addr [29:0] $end
$var reg 128 L mem_rdata_D_reg [127:0] $end
$var reg 128 M mem_rdata_I_reg [127:0] $end
$var reg 1 ; mem_ready_D_reg $end
$var reg 1 < mem_ready_I_reg $end
$scope module D_cache $end
$var wire 1 4 clk $end
$var wire 128 N mem_rdata [127:0] $end
$var wire 1 ( mem_read $end
$var wire 1 ; mem_ready $end
$var wire 128 O mem_wdata [127:0] $end
$var wire 1 " mem_write $end
$var wire 1 P old_valid_and_modified $end
$var wire 1 Q proc_reset $end
$var wire 1 H proc_stall $end
$var wire 1 R read_hit $end
$var wire 1 S read_miss $end
$var wire 1 T write_hit $end
$var wire 1 U write_miss $end
$var wire 1 1 proc_write $end
$var wire 32 V proc_wdata [31:0] $end
$var wire 26 W proc_tag [25:0] $end
$var wire 1 I proc_read $end
$var wire 32 X proc_rdata [31:0] $end
$var wire 2 Y proc_offset [1:0] $end
$var wire 2 Z proc_modulo [1:0] $end
$var wire 30 [ proc_addr [29:0] $end
$var wire 28 \ mem_addr [27:0] $end
$var wire 1 ] index $end
$var parameter 2 ^ STATE_READ $end
$var parameter 2 _ STATE_READY $end
$var parameter 2 ` STATE_WRITE $end
$var reg 2 a state_r [1:0] $end
$var reg 2 b state_w [1:0] $end
$var integer 32 c i [31:0] $end
$var integer 32 d j [31:0] $end
$upscope $end
$scope module I_cache $end
$var wire 1 4 clk $end
$var wire 128 e mem_rdata [127:0] $end
$var wire 1 ' mem_read $end
$var wire 1 < mem_ready $end
$var wire 128 f mem_wdata [127:0] $end
$var wire 1 ! mem_write $end
$var wire 1 g old_valid_and_modified $end
$var wire 1 6 proc_read $end
$var wire 1 h proc_reset $end
$var wire 1 D proc_stall $end
$var wire 32 i proc_wdata [31:0] $end
$var wire 1 8 proc_write $end
$var wire 1 j read_hit $end
$var wire 1 k read_miss $end
$var wire 1 l write_hit $end
$var wire 1 m write_miss $end
$var wire 26 n proc_tag [25:0] $end
$var wire 32 o proc_rdata [31:0] $end
$var wire 2 p proc_offset [1:0] $end
$var wire 2 q proc_modulo [1:0] $end
$var wire 30 r proc_addr [29:0] $end
$var wire 28 s mem_addr [27:0] $end
$var wire 1 t index $end
$var parameter 2 u STATE_READ $end
$var parameter 2 v STATE_READY $end
$var parameter 2 w STATE_WRITE $end
$var reg 2 x state_r [1:0] $end
$var reg 2 y state_w [1:0] $end
$var integer 32 z i [31:0] $end
$var integer 32 { j [31:0] $end
$upscope $end
$scope module i_RISCV $end
$var wire 32 | DCACHE_rdata [31:0] $end
$var wire 1 I DCACHE_ren $end
$var wire 1 H DCACHE_stall $end
$var wire 1 1 DCACHE_wen $end
$var wire 32 } ICACHE_rdata [31:0] $end
$var wire 1 6 ICACHE_ren $end
$var wire 1 D ICACHE_stall $end
$var wire 32 ~ ICACHE_wdata [31:0] $end
$var wire 1 8 ICACHE_wen $end
$var wire 32 !" PC [31:0] $end
$var wire 1 "" branch_or_jal $end
$var wire 1 #" branch_or_jump $end
$var wire 1 4 clk $end
$var wire 1 $" predict_wrong $end
$var wire 1 5 rst_n $end
$var wire 1 %" stall $end
$var wire 1 &" stall_mem $end
$var wire 1 '" zero $end
$var wire 1 (" stall_load_use $end
$var wire 32 )" mux9 [31:0] $end
$var wire 32 *" mux8 [31:0] $end
$var wire 32 +" mux7 [31:0] $end
$var wire 32 ," mux6 [31:0] $end
$var wire 32 -" mux5 [31:0] $end
$var wire 32 ." mux4 [31:0] $end
$var wire 32 /" mux3 [31:0] $end
$var wire 32 0" mux2 [31:0] $end
$var wire 32 1" mux1 [31:0] $end
$var wire 32 2" mem_data_MEMWB [31:0] $end
$var wire 32 3" mem_data [31:0] $end
$var wire 1 4" is_compress $end
$var wire 32 5" instruction_w [31:0] $end
$var wire 32 6" instruction_IFID [31:0] $end
$var wire 32 7" immgen_result_IDEX [31:0] $end
$var wire 32 8" immgen_result [31:0] $end
$var wire 32 9" decompressed_instruction [31:0] $end
$var wire 1 :" compress_IDEX $end
$var wire 32 ;" alu_result_MEMWB [31:0] $end
$var wire 32 <" alu_result_EXMEM [31:0] $end
$var wire 32 =" alu_result [31:0] $end
$var wire 1 >" RegWrite_MEMWB $end
$var wire 1 ?" RegWrite_IDEX $end
$var wire 1 @" RegWrite_EXMEM $end
$var wire 1 A" RegWrite $end
$var wire 5 B" RS2addr_IDEX [4:0] $end
$var wire 32 C" RS2_data_IDEX [31:0] $end
$var wire 32 D" RS2_data_EXMEM [31:0] $end
$var wire 32 E" RS2_data [31:0] $end
$var wire 5 F" RS1addr_IDEX [4:0] $end
$var wire 32 G" RS1_data_IDEX [31:0] $end
$var wire 32 H" RS1_data [31:0] $end
$var wire 5 I" RDaddr_MEMWB [4:0] $end
$var wire 5 J" RDaddr_IDEX [4:0] $end
$var wire 5 K" RDaddr_EXMEM [4:0] $end
$var wire 32 L" PC_r_plus2 [31:0] $end
$var wire 32 M" PC_r_MEMWB_plus4 [31:0] $end
$var wire 32 N" PC_r_IFID [31:0] $end
$var wire 32 O" PC_r_IDEX_plus4 [31:0] $end
$var wire 32 P" PC_r_IDEX [31:0] $end
$var wire 32 Q" PC_r_EXMEM_plus4 [31:0] $end
$var wire 1 R" MemtoReg_MEMWB $end
$var wire 1 S" MemtoReg_IDEX $end
$var wire 1 T" MemtoReg_EXMEM $end
$var wire 1 U" MemtoReg $end
$var wire 1 V" MemWrite_IDEX $end
$var wire 1 W" MemWrite_EXMEM $end
$var wire 1 X" MemWrite $end
$var wire 1 Y" MemRead_IDEX $end
$var wire 1 Z" MemRead_EXMEM $end
$var wire 1 [" MemRead $end
$var wire 1 \" Jalr_MEMWB $end
$var wire 1 ]" Jalr_IDEX $end
$var wire 1 ^" Jalr_EXMEM $end
$var wire 1 _" Jalr $end
$var wire 1 `" Jal_MEMWB $end
$var wire 1 a" Jal_IDEX $end
$var wire 1 b" Jal_EXMEM $end
$var wire 1 c" Jal $end
$var wire 30 d" ICACHE_addr [29:0] $end
$var wire 2 e" ForwardB [1:0] $end
$var wire 2 f" ForwardA [1:0] $end
$var wire 1 g" Flush_IFID $end
$var wire 1 h" Flush_IDEX $end
$var wire 32 i" DCACHE_wdata [31:0] $end
$var wire 30 j" DCACHE_addr [29:0] $end
$var wire 1 k" Branch_IDEX $end
$var wire 1 l" Branch $end
$var wire 1 m" ALUSrc_IDEX $end
$var wire 1 n" ALUSrc $end
$var wire 2 o" ALUOp_IDEX [1:0] $end
$var wire 2 p" ALUOp [1:0] $end
$var wire 4 q" ALUCtrl_in [3:0] $end
$var wire 4 r" ALUCtrl [3:0] $end
$var parameter 2 s" COMPLETE $end
$var parameter 2 t" INCOMPLETE $end
$var parameter 2 u" PREPARE $end
$var reg 32 v" PC_r [31:0] $end
$var reg 16 w" compression_buffer_r [15:0] $end
$var reg 16 x" compression_buffer_w [15:0] $end
$var reg 2 y" state_r [1:0] $end
$var reg 2 z" state_w [1:0] $end
$var reg 32 {" true_instruction [31:0] $end
$scope module EXMEM $end
$var wire 32 |" PC_i [31:0] $end
$var wire 32 }" RS2data_i [31:0] $end
$var wire 1 &" Stall $end
$var wire 1 4 clk $end
$var wire 1 5 rst_n $end
$var wire 1 ?" RegWrite_i $end
$var wire 5 ~" RDaddr_i [4:0] $end
$var wire 1 S" MemtoReg_i $end
$var wire 1 V" MemWrite_i $end
$var wire 1 Y" MemRead_i $end
$var wire 1 ]" Jalr_i $end
$var wire 1 a" Jal_i $end
$var wire 32 !# ALUResult_i [31:0] $end
$var reg 32 "# ALUResult_o [31:0] $end
$var reg 1 b" Jal_o $end
$var reg 1 ^" Jalr_o $end
$var reg 1 Z" MemRead_o $end
$var reg 1 W" MemWrite_o $end
$var reg 1 T" MemtoReg_o $end
$var reg 32 ## PC_o [31:0] $end
$var reg 5 $# RDaddr_o [4:0] $end
$var reg 32 %# RS2data_o [31:0] $end
$var reg 1 @" RegWrite_o $end
$upscope $end
$scope module Forwarding_Unit $end
$var wire 5 &# RDaddr_EXMEM_i [4:0] $end
$var wire 1 @" RegWrite_EXMEM_i $end
$var wire 1 '# cA1 $end
$var wire 1 (# cA2 $end
$var wire 1 )# cB1 $end
$var wire 1 *# cB2 $end
$var wire 2 +# tmpB [1:0] $end
$var wire 2 ,# tmpA [1:0] $end
$var wire 1 >" RegWrite_MEMWB_i $end
$var wire 5 -# RS2addr_i [4:0] $end
$var wire 5 .# RS1addr_i [4:0] $end
$var wire 5 /# RDaddr_MEMWB_i [4:0] $end
$var wire 2 0# ForwardB_o [1:0] $end
$var wire 2 1# ForwardA_o [1:0] $end
$upscope $end
$scope module Hazard_Detection_Unit $end
$var wire 1 #" BranchOrJump_i $end
$var wire 1 h" Flush_IDEX_o $end
$var wire 1 g" Flush_IFID_o $end
$var wire 5 2# RS1addr_i [4:0] $end
$var wire 5 3# RS2addr_i [4:0] $end
$var wire 1 (" Stall_load_use_o $end
$var wire 1 4# tmp $end
$var wire 5 5# RDaddr_i [4:0] $end
$var wire 1 Y" MemRead_i $end
$upscope $end
$scope module IDEX $end
$var wire 1 6# Flush $end
$var wire 5 7# RDaddr_i [4:0] $end
$var wire 5 8# RS1addr_i [4:0] $end
$var wire 5 9# RS2addr_i [4:0] $end
$var wire 1 &" Stall $end
$var wire 1 4 clk $end
$var wire 1 4" compress_i $end
$var wire 4 :# funct_i [3:0] $end
$var wire 1 5 rst_n $end
$var wire 32 ;# imm_i [31:0] $end
$var wire 1 A" RegWrite_i $end
$var wire 32 <# RS2data_i [31:0] $end
$var wire 32 =# RS1data_i [31:0] $end
$var wire 32 ># PC_i [31:0] $end
$var wire 1 U" MemtoReg_i $end
$var wire 1 X" MemWrite_i $end
$var wire 1 [" MemRead_i $end
$var wire 1 _" Jalr_i $end
$var wire 1 c" Jal_i $end
$var wire 1 l" Branch_i $end
$var wire 1 n" ALUSrc_i $end
$var wire 2 ?# ALUOp_i [1:0] $end
$var reg 2 @# ALUOp_o [1:0] $end
$var reg 1 m" ALUSrc_o $end
$var reg 1 k" Branch_o $end
$var reg 1 a" Jal_o $end
$var reg 1 ]" Jalr_o $end
$var reg 1 Y" MemRead_o $end
$var reg 1 V" MemWrite_o $end
$var reg 1 S" MemtoReg_o $end
$var reg 32 A# PC_o [31:0] $end
$var reg 5 B# RDaddr_o [4:0] $end
$var reg 5 C# RS1addr_o [4:0] $end
$var reg 32 D# RS1data_o [31:0] $end
$var reg 5 E# RS2addr_o [4:0] $end
$var reg 32 F# RS2data_o [31:0] $end
$var reg 1 ?" RegWrite_o $end
$var reg 1 :" compress_o $end
$var reg 4 G# funct_o [3:0] $end
$var reg 32 H# imm_o [31:0] $end
$upscope $end
$scope module IFID $end
$var wire 1 I# Flush $end
$var wire 32 J# PC_i [31:0] $end
$var wire 1 %" Stall $end
$var wire 1 4 clk $end
$var wire 32 K# instr_i [31:0] $end
$var wire 1 5 rst_n $end
$var reg 32 L# PC_o [31:0] $end
$var reg 32 M# instr_o [31:0] $end
$upscope $end
$scope module MEMWB $end
$var wire 32 N# ALUResult_i [31:0] $end
$var wire 1 b" Jal_i $end
$var wire 1 ^" Jalr_i $end
$var wire 32 O# MemData_i [31:0] $end
$var wire 1 T" MemtoReg_i $end
$var wire 32 P# PC_i [31:0] $end
$var wire 5 Q# RDaddr_i [4:0] $end
$var wire 1 @" RegWrite_i $end
$var wire 1 &" Stall $end
$var wire 1 4 clk $end
$var wire 1 5 rst_n $end
$var reg 32 R# ALUResult_o [31:0] $end
$var reg 1 `" Jal_o $end
$var reg 1 \" Jalr_o $end
$var reg 32 S# MemData_o [31:0] $end
$var reg 1 R" MemtoReg_o $end
$var reg 32 T# PC_o [31:0] $end
$var reg 5 U# RDaddr_o [4:0] $end
$var reg 1 >" RegWrite_o $end
$upscope $end
$scope module alu $end
$var wire 32 V# data1_i [31:0] $end
$var wire 32 W# data2_i [31:0] $end
$var wire 4 X# ALUCtrl_i [3:0] $end
$var reg 32 Y# add_result [31:0] $end
$var reg 32 Z# and_result [31:0] $end
$var reg 32 [# data_o [31:0] $end
$var reg 32 \# or_result [31:0] $end
$var reg 32 ]# sll_result [31:0] $end
$var reg 32 ^# sra_result [31:0] $end
$var reg 32 _# srl_result [31:0] $end
$var reg 32 `# sub_result [31:0] $end
$var reg 32 a# xor_result [31:0] $end
$var reg 1 '" zero_o $end
$upscope $end
$scope module alu_control $end
$var wire 2 b# ALUOp_i [1:0] $end
$var wire 3 c# Funct3_i [2:0] $end
$var wire 1 d# Funct7_i $end
$var wire 1 e# isBEQ $end
$var wire 1 f# isBNE $end
$var wire 1 g# isSLL $end
$var wire 1 h# isSLT $end
$var wire 1 i# isSRA $end
$var wire 1 j# isSRL $end
$var wire 1 k# isSUB $end
$var wire 1 l# isXOR $end
$var wire 1 m# isOR $end
$var wire 1 n# isAND $end
$var wire 4 o# ALUCtrl_o [3:0] $end
$upscope $end
$scope module control $end
$var wire 7 p# Opcode_i [6:0] $end
$var wire 1 A" RegWrite_o $end
$var wire 1 U" MemtoReg_o $end
$var wire 1 X" MemWrite_o $end
$var wire 1 [" MemRead_o $end
$var wire 1 _" Jalr_o $end
$var wire 1 c" Jal_o $end
$var wire 1 l" Branch_o $end
$var wire 1 n" ALUSrc_o $end
$var wire 2 q# ALUOp_o [1:0] $end
$upscope $end
$scope module decompressor $end
$var wire 1 4" decompress_i $end
$var wire 32 r# instr_i [31:0] $end
$var wire 1 s# is_add $end
$var wire 1 t# is_addi $end
$var wire 1 u# is_andi $end
$var wire 1 v# is_beqz $end
$var wire 1 w# is_bnez $end
$var wire 1 x# is_j $end
$var wire 1 y# is_jal $end
$var wire 1 z# is_jalr $end
$var wire 1 {# is_jr $end
$var wire 1 |# is_lw $end
$var wire 1 }# is_mv $end
$var wire 1 ~# is_slli $end
$var wire 1 !$ is_srai $end
$var wire 1 "$ is_srli $end
$var wire 1 #$ is_sw $end
$var wire 32 $$ instr_o [31:0] $end
$var reg 32 %$ decompressed_instr [31:0] $end
$upscope $end
$scope module immgen $end
$var wire 32 &$ instruction_i [31:0] $end
$var reg 32 '$ immgen_o [31:0] $end
$upscope $end
$scope module register_file $end
$var wire 5 ($ RD_address_i [4:0] $end
$var wire 32 )$ RD_data_i [31:0] $end
$var wire 5 *$ RS1_address_i [4:0] $end
$var wire 5 +$ RS2_address_i [4:0] $end
$var wire 1 >" RegWrite_i $end
$var wire 1 4 clk_i $end
$var wire 1 5 rst_n_i $end
$var reg 32 ,$ RS1_data_o [31:0] $end
$var reg 32 -$ RS2_data_o [31:0] $end
$var integer 32 .$ i [31:0] $end
$upscope $end
$upscope $end
$upscope $end
$scope module slow_memD $end
$var wire 1 4 clk $end
$var wire 28 /$ mem_addr [27:0] $end
$var wire 1 ( mem_read $end
$var wire 128 0$ mem_wdata [127:0] $end
$var wire 1 " mem_write $end
$var parameter 2 1$ BUBBLE $end
$var parameter 2 2$ IDLE $end
$var parameter 32 3$ LATENCY $end
$var parameter 32 4$ MEM_NUM $end
$var parameter 32 5$ MEM_WIDTH $end
$var parameter 2 6$ READY $end
$var parameter 2 7$ WAIT $end
$var reg 28 8$ mem_addr_r [27:0] $end
$var reg 128 9$ mem_rdata [127:0] $end
$var reg 128 :$ mem_rdata_next [127:0] $end
$var reg 1 ;$ mem_read_r $end
$var reg 1 & mem_ready $end
$var reg 1 <$ mem_ready_next $end
$var reg 128 =$ mem_wdata_r [127:0] $end
$var reg 1 >$ mem_write_r $end
$var reg 2 ?$ state [1:0] $end
$var reg 2 @$ state_next [1:0] $end
$var integer 32 A$ i [31:0] $end
$upscope $end
$scope module slow_memI $end
$var wire 1 4 clk $end
$var wire 28 B$ mem_addr [27:0] $end
$var wire 1 ' mem_read $end
$var wire 128 C$ mem_wdata [127:0] $end
$var wire 1 ! mem_write $end
$var parameter 2 D$ BUBBLE $end
$var parameter 2 E$ IDLE $end
$var parameter 32 F$ LATENCY $end
$var parameter 32 G$ MEM_NUM $end
$var parameter 32 H$ MEM_WIDTH $end
$var parameter 2 I$ READY $end
$var parameter 2 J$ WAIT $end
$var reg 28 K$ mem_addr_r [27:0] $end
$var reg 128 L$ mem_rdata [127:0] $end
$var reg 128 M$ mem_rdata_next [127:0] $end
$var reg 1 N$ mem_read_r $end
$var reg 1 % mem_ready $end
$var reg 1 O$ mem_ready_next $end
$var reg 128 P$ mem_wdata_r [127:0] $end
$var reg 1 Q$ mem_write_r $end
$var reg 2 R$ state [1:0] $end
$var reg 2 S$ state_next [1:0] $end
$var integer 32 T$ i [31:0] $end
$upscope $end
$scope module testbed $end
$var wire 30 U$ addr [29:0] $end
$var wire 1 4 clk $end
$var wire 32 V$ data [31:0] $end
$var wire 1 5 rst $end
$var wire 1 1 wen $end
$var wire 32 W$ data_modify [31:0] $end
$var parameter 2 X$ state_check $end
$var parameter 2 Y$ state_idle $end
$var parameter 2 Z$ state_report $end
$var reg 32 [$ answer [31:0] $end
$var reg 5 \$ curaddr [4:0] $end
$var reg 2 ]$ curstate [1:0] $end
$var reg 16 ^$ duration [15:0] $end
$var reg 8 _$ error_num [7:0] $end
$var reg 1 - finish $end
$var reg 8 `$ nxt_error_num [7:0] $end
$var reg 5 a$ nxtaddr [4:0] $end
$var reg 16 b$ nxtduration [15:0] $end
$var reg 2 c$ nxtstate [1:0] $end
$var reg 1 d$ state $end
$var reg 1 e$ state_next $end
$upscope $end
$upscope $end
$enddefinitions $end
$comment Show the parameter values. $end
$dumpall
b10 Z$
b0 Y$
b1 X$
b1 J$
b11 I$
b10000000 H$
b10000000000 G$
b101101 F$
b0 E$
b10 D$
b1 7$
b11 6$
b10000000 5$
b10000000000 4$
b101101 3$
b0 2$
b10 1$
b10 u"
b1 t"
b0 s"
b11 w
b0 v
b1 u
b11 `
b0 _
b1 ^
$end
#0
$dumpvars
xe$
xd$
bx c$
bx b$
bx a$
bx `$
bx _$
bx ^$
bx ]$
bx \$
bx [$
bx W$
bx V$
bx U$
b1000000000000 T$
bx S$
bx R$
xQ$
bx P$
xO$
xN$
bx M$
bx L$
bx K$
bx C$
bx B$
b1000000000000 A$
bx @$
bx ?$
x>$
bx =$
x<$
x;$
bx :$
bx 9$
bx 8$
bx 0$
bx /$
bx .$
bx -$
bx ,$
bx +$
bx *$
bx )$
bx ($
bx '$
bx &$
bx %$
bx $$
x#$
x"$
x!$
x~#
x}#
x|#
x{#
xz#
xy#
xx#
xw#
xv#
xu#
xt#
xs#
bx r#
bx q#
bx p#
bx o#
xn#
xm#
xl#
xk#
xj#
xi#
xh#
xg#
xf#
xe#
xd#
bx c#
bx b#
bx a#
bx `#
bx _#
bx ^#
bx ]#
bx \#
b0 [#
bx Z#
bx Y#
bx X#
bx W#
bx V#
bx U#
bx T#
bx S#
bx R#
bx Q#
bx P#
bx O#
bx N#
bx M#
bx L#
bx K#
bx J#
xI#
bx H#
bx G#
bx F#
bx E#
bx D#
bx C#
bx B#
bx A#
bx @#
bx ?#
bx >#
bx =#
bx <#
bx ;#
bx :#
bx 9#
bx 8#
bx 7#
x6#
bx 5#
x4#
bx 3#
bx 2#
bx 1#
bx 0#
bx /#
bx .#
bx -#
b0x ,#
b0x +#
x*#
x)#
x(#
x'#
bx &#
bx %#
bx $#
bx ##
bx "#
b0 !#
bx ~"
bx }"
bx |"
bx {"
bx z"
bx y"
bx x"
bx w"
bx v"
bx r"
bx q"
bx p"
bx o"
xn"
xm"
xl"
xk"
bx j"
bx i"
xh"
xg"
bx f"
bx e"
bx d"
xc"
xb"
xa"
x`"
x_"
x^"
x]"
x\"
x["
xZ"
xY"
xX"
xW"
xV"
xU"
xT"
xS"
xR"
bx Q"
bx P"
bx O"
bx N"
bx M"
bx L"
bx K"
bx J"
bx I"
bx H"
bx G"
bx F"
bx E"
bx D"
bx C"
bx B"
xA"
x@"
x?"
x>"
b0 ="
bx <"
bx ;"
x:"
bx 9"
bx 8"
bx 7"
bx 6"
bx 5"
x4"
bx 3"
bx 2"
bx 1"
bx 0"
bx /"
bx ."
bx -"
bx ,"
bx +"
bx *"
bx )"
x("
x'"
x&"
x%"
x$"
x#"
x""
bx !"
b0 ~
bx }
bx |
b10 {
b100 z
b0 y
bx x
xt
bx s
bx r
bx q
bx p
bx o
bx n
0m
0l
xk
xj
b0 i
0h
xg
bx f
bx e
bx d
bx c
bx b
bx a
x]
bx \
bx [
bx Z
bx Y
bx X
bx W
bx V
xU
xT
xS
xR
0Q
xP
bx O
bx N
bx M
bx L
bx K
bx J
xI
xH
bx G
bx F
bx E
xD
bx C
bx B
bx A
bx @
bx ?
bx >
bx =
x<
x;
bx :
bx 9
08
b0 7
16
15
04
bx 3
bx 2
x1
bx 0
bx /
bx .
x-
bx ,
bx +
bx *
bx )
x(
x'
x&
x%
bx $
bx #
x"
x!
$end
#500
bx00 ,
bx00 B
bx00 \
bx00 /$
b0 Y
b0 Z
b0 W
0-
b0 3
b0 K
b0 [
b0 j"
b0 U$
0'
0!
b0 <"
b0 "#
b0 N#
b0 x
b100000 .$
b10 d
b100 c
b10 {
b100 z
14
#600
0e$
b1101111010101101 [$
b0 c$
b11111111 `$
b0 b$
b0 a$
0d$
b11111111 .
b11111111 _$
b0 /
b0 ^$
b0 \$
b0 ]$
1Q
1h
05
#1000
0O$
b0 S$
0Q$
0N$
bx00 8$
b1000000000000 T$
b1000000000000 A$
04
#1500
1%"
1&"
1D
b1 y
0_"
0c"
b1 p"
b1 ?#
b1 q#
0j
1k
b0 {"
b0 K#
b0 x"
0g
1A"
1n"
b0 5"
b0 +
b0 A
b0 s
b0 B$
b0 #
b0 =
b0 f
b0 C$
06#
0I#
14#
b0 E"
b0 <#
b0 -$
b0 H"
b0 =#
b0 ,$
0l"
0U"
0X"
0["
0}#
0s#
b10 ."
b0 E
b0 o
b0 }
b0 p
1t
b0 q
b0 n
b0 +#
b0 ,#
b0 f"
b0 1#
b0 e"
b0 0#
0h"
0$"
0g"
0#"
b0 :#
b0 7#
b0 9#
b0 8#
b0 3#
b0 2#
b0 +$
b0 *$
b10011 p#
b0 8"
b0 ;#
b0 '$
0t#
0y#
0"$
0!$
0u#
0P
b0 ,
b0 B
b0 \
b0 /$
b10 /"
b0 F
b0 r
b0 d"
0*#
0(#
0H
0'#
0)#
b0 *"
0("
0""
b10011 9"
b10011 $$
b10011 &$
0|#
0#$
0x#
0v#
0w#
0~#
0{#
0z#
b0 $
b0 >
b0 O
b0 0$
b0 3"
b0 O#
b0 b
0(
0"
b10 )"
b1 z"
0U
0T
0S
0R
b100 O"
b100 |"
0e#
0g#
0f#
b10000000000000001101111 %$
04"
b0 J
b0 X
b0 |
1]
b0 a
b10 L"
b0 0
b0 C
b0 !"
b0 v"
b0 J#
b0 w"
b0 y"
b0 I"
b0 /#
b0 U#
b0 ($
0R"
0>"
0`"
0\"
b0 K"
b0 $#
b0 &#
b0 Q#
01
0W"
0I
0Z"
0T"
0@"
0b"
0^"
b0 J"
b0 ~"
b0 5#
b0 B#
b0 P"
b0 A#
0m"
b0 o"
b0 @#
b0 b#
0V"
0Y"
0S"
0?"
0k"
0a"
0]"
0:"
b0 N"
b0 >#
b0 L#
b10011 6"
b10011 M#
b10011 r#
b10 {
b100 z
b10 d
b100 c
b100000 .$
14
#2000
0<$
b0 @$
b0 =$
b0 8$
0>$
0;$
0%
b0 R$
b0 P$
b0 K$
b1000000000000 A$
b1000000000000 T$
04
#2500
0<
b100000 .$
b10 d
b100 c
b10 {
b100 z
14
#3000
0&
b0 ?$
b1000000000000 T$
b1000000000000 A$
04
#3500
0;
b10 {
b100 z
b10 d
b100 c
b100000 .$
14
#4000
b1000000000000 A$
b1000000000000 T$
04
#4500
b100000 .$
b10 d
b100 c
b10 {
b100 z
14
#5000
b1000000000000 T$
b1000000000000 A$
04
#5500
b10 {
b100 z
b10 d
b100 c
b100000 .$
14
#6000
b1000000000000 A$
b1000000000000 T$
04
#6500
b100000 .$
b10 d
b100 c
b10 {
b100 z
14
#7000
b1000000000000 T$
b1000000000000 A$
04
#7500
b10 {
b100 z
b10 d
b100 c
b100000 .$
14
#8000
b1000000000000 A$
b1000000000000 T$
04
#8500
b100000 .$
b10 d
b100 c
b10 {
b100 z
14
#9000
b1000000000000 T$
b1000000000000 A$
04
#9500
b10 {
b100 z
b10 d
b100 c
b100000 .$
14
#9510
0Q
0h
15
#10000
b1000000000000 A$
b1000000000000 T$
04
#10500
1'
b1 x
b100000 .$
b10 d
b100 c
b10 {
b100 z
14
#11000
b1 S$
1N$
b1000000000000 T$
b1000000000000 A$
04
#11500
b10 {
b100 z
b10 d
b100 c
b100000 .$
14
#12000
b1 R$
b1000000000000 A$
b1000000000000 T$
04
#12500
b100000 .$
b10 d
b100 c
b10 {
b100 z
14
#13000
b1000000000000 T$
b1000000000000 A$
04
#13500
b10 {
b100 z
b10 d
b100 c
b100000 .$
14
#14000
b1000000000000 A$
b1000000000000 T$
04
#14500
b100000 .$
b10 d
b100 c
b10 {
b100 z
14
#15000
b1000000000000 T$
b1000000000000 A$
04
#15500
b10 {
b100 z
b10 d
b100 c
b100000 .$
14
#16000
b1000000000000 A$
b1000000000000 T$
04
#16500
b100000 .$
b10 d
b100 c
b10 {
b100 z
14
b10 S$
#17000
b100011001000001000011100000100011011110000000011000000000001010001001100000000000000000000000000010011000000000000000000000000 M$
1O$
b11 S$
b10 R$
b1000000000000 T$
b1000000000000 A$
04
#17500
b10 {
b100 z
b10 d
b100 c
b100000 .$
14
#18000
0O$
b0 S$
b100011001000001000011100000100011011110000000011000000000001010001001100000000000000000000000000010011000000000000000000000000 )
b100011001000001000011100000100011011110000000011000000000001010001001100000000000000000000000000010011000000000000000000000000 ?
b100011001000001000011100000100011011110000000011000000000001010001001100000000000000000000000000010011000000000000000000000000 L$
1%
b11 R$
b1000000000000 A$
b1000000000000 T$
04
#18500
0'
b0 y
1<
b100011001000001000011100000100011011110000000011000000000001010001001100000000000000000000000000010011000000000000000000000000 :
b100011001000001000011100000100011011110000000011000000000001010001001100000000000000000000000000010011000000000000000000000000 e
b100011001000001000011100000100011011110000000011000000000001010001001100000000000000000000000000010011000000000000000000000000 M
b100000 .$
b10 d
b100 c
b10 {
b100 z
14
#19000
0N$
0%
b0 R$
b1000000000000 T$
b1000000000000 A$
04
#19500
0%"
0&"
b100 ."
b100 /"
0D
b100 )"
1j
0k
b10011 {"
b10011 K#
b0 z"
b10011 5"
b0 y
0<
b10011000000000000000000000000 E
b10011000000000000000000000000 o
b10011000000000000000000000000 }
b0 #
b0 =
b0 f
b0 C$
b0 x
b10 {
b100 z
b10 d
b100 c
b100000 .$
14
#20000
b1000000000000 A$
b1000000000000 T$
04
#20500
b0 r"
b0 X#
b0 o#
0'"
b0 ^#
b0 _#
b0 ]#
b0 a#
b0 \#
b0 Z#
b0 `#
b0 Y#
b1000 ."
b1 p
0h#
0j#
0i#
b0 +"
b0 }"
b0 ,"
b0 V#
b0 0"
b0 W#
b0 1"
b0 )$
b1000 /"
b1 F
b1 r
b1 d"
0n#
0m#
0l#
b0 c#
0d#
0k#
0g#
b0 -"
b1000 )"
b0 7"
b0 H#
b0 B"
b0 -#
b0 E#
b0 F"
b0 .#
b0 C#
b0 q"
b0 G#
b0 C"
b0 F#
b0 G"
b0 D#
1m"
b1 o"
b1 @#
b1 b#
1?"
b100 Q"
b100 ##
b100 P#
b0 2"
b0 S#
b0 ;"
b0 R#
b110 L"
b100 0
b100 C
b100 !"
b100 v"
b100 J#
b100000 .$
b10 d
b100 c
b10 {
b100 z
14
#21000
b1000000000000 T$
b1000000000000 A$
04
