Final.vcd
$date
	Tue May 30 16:29:49 2023
$end
$version
	Icarus Verilog
$end
$timescale
	10ps
$end
$scope module Final_tb $end
$var wire 1 ! mem_write_I $end
$var wire 1 " mem_write_D $end
$var wire 128 # mem_wdata_I [127:0] $end
$var wire 128 $ mem_wdata_D [127:0] $end
$var wire 1 % mem_ready_I $end
$var wire 1 & mem_ready_D $end
$var wire 1 ' mem_read_I $end
$var wire 1 ( mem_read_D $end
$var wire 128 ) mem_rdata_I [127:0] $end
$var wire 128 * mem_rdata_D [127:0] $end
$var wire 28 + mem_addr_I [31:4] $end
$var wire 28 , mem_addr_D [31:4] $end
$var wire 1 - finish $end
$var wire 8 . error_num [7:0] $end
$var wire 16 / duration [15:0] $end
$var wire 32 0 PC [31:0] $end
$var wire 1 1 DCACHE_wen $end
$var wire 32 2 DCACHE_wdata [31:0] $end
$var wire 30 3 DCACHE_addr [29:0] $end
$var reg 1 4 clk $end
$var reg 1 5 rst_n $end
$scope module chip0 $end
$var wire 1 6 ICACHE_ren $end
$var wire 32 7 ICACHE_wdata [31:0] $end
$var wire 1 8 ICACHE_wen $end
$var wire 1 4 clk $end
$var wire 1 5 rst_n $end
$var wire 1 ! mem_write_I $end
$var wire 1 " mem_write_D $end
$var wire 128 9 mem_wdata_I [127:0] $end
$var wire 128 : mem_wdata_D [127:0] $end
$var wire 1 % mem_ready_I $end
$var wire 1 & mem_ready_D $end
$var wire 1 ' mem_read_I $end
$var wire 1 ( mem_read_D $end
$var wire 128 ; mem_rdata_I [127:0] $end
$var wire 128 < mem_rdata_D [127:0] $end
$var wire 28 = mem_addr_I [31:4] $end
$var wire 28 > mem_addr_D [31:4] $end
$var wire 32 ? PC [31:0] $end
$var wire 1 @ ICACHE_stall $end
$var wire 32 A ICACHE_rdata [31:0] $end
$var wire 30 B ICACHE_addr [29:0] $end
$var wire 1 1 DCACHE_wen $end
$var wire 32 C DCACHE_wdata [31:0] $end
$var wire 1 D DCACHE_stall $end
$var wire 1 E DCACHE_ren $end
$var wire 32 F DCACHE_rdata [31:0] $end
$var wire 30 G DCACHE_addr [29:0] $end
$var reg 128 H mem_rdata_D_r [127:0] $end
$var reg 128 I mem_rdata_I_r [127:0] $end
$var reg 1 J mem_ready_D_r $end
$var reg 1 K mem_ready_I_r $end
$var reg 1 L rst_n_r $end
$scope module D_cache $end
$var wire 1 4 clk $end
$var wire 128 M mem_rdata [127:0] $end
$var wire 1 J mem_ready $end
$var wire 128 N mem_wdata [127:0] $end
$var wire 1 O old_valid_and_modified $end
$var wire 1 P proc_reset $end
$var wire 1 D proc_stall $end
$var wire 1 Q read_hit $end
$var wire 1 R read_miss $end
$var wire 1 S write_hit $end
$var wire 1 T write_miss $end
$var wire 1 1 proc_write $end
$var wire 32 U proc_wdata [31:0] $end
$var wire 26 V proc_tag [25:0] $end
$var wire 1 E proc_read $end
$var wire 32 W proc_rdata [31:0] $end
$var wire 2 X proc_offset [1:0] $end
$var wire 2 Y proc_modulo [1:0] $end
$var wire 30 Z proc_addr [29:0] $end
$var wire 1 " mem_write $end
$var wire 1 ( mem_read $end
$var wire 28 [ mem_addr [27:0] $end
$var wire 1 \ index $end
$var parameter 2 ] STATE_READ $end
$var parameter 2 ^ STATE_READY $end
$var parameter 2 _ STATE_WRITE $end
$var reg 2 ` state_r [1:0] $end
$var reg 2 a state_w [1:0] $end
$var integer 32 b i [31:0] $end
$var integer 32 c j [31:0] $end
$upscope $end
$scope module I_cache $end
$var wire 1 4 clk $end
$var wire 128 d mem_rdata [127:0] $end
$var wire 1 K mem_ready $end
$var wire 128 e mem_wdata [127:0] $end
$var wire 1 f old_valid_and_modified $end
$var wire 1 6 proc_read $end
$var wire 1 g proc_reset $end
$var wire 1 @ proc_stall $end
$var wire 32 h proc_wdata [31:0] $end
$var wire 1 8 proc_write $end
$var wire 1 i read_hit $end
$var wire 1 j read_miss $end
$var wire 1 k write_hit $end
$var wire 1 l write_miss $end
$var wire 26 m proc_tag [25:0] $end
$var wire 32 n proc_rdata [31:0] $end
$var wire 2 o proc_offset [1:0] $end
$var wire 2 p proc_modulo [1:0] $end
$var wire 30 q proc_addr [29:0] $end
$var wire 1 ! mem_write $end
$var wire 1 ' mem_read $end
$var wire 28 r mem_addr [27:0] $end
$var wire 1 s index $end
$var parameter 2 t STATE_READ $end
$var parameter 2 u STATE_READY $end
$var parameter 2 v STATE_WRITE $end
$var reg 2 w state_r [1:0] $end
$var reg 2 x state_w [1:0] $end
$var integer 32 y i [31:0] $end
$var integer 32 z j [31:0] $end
$upscope $end
$scope module i_RISCV $end
$var wire 32 { DCACHE_rdata [31:0] $end
$var wire 1 E DCACHE_ren $end
$var wire 1 D DCACHE_stall $end
$var wire 1 1 DCACHE_wen $end
$var wire 32 | ICACHE_rdata [31:0] $end
$var wire 1 6 ICACHE_ren $end
$var wire 1 @ ICACHE_stall $end
$var wire 32 } ICACHE_wdata [31:0] $end
$var wire 1 8 ICACHE_wen $end
$var wire 32 ~ PC [31:0] $end
$var wire 1 !" branch_or_jal $end
$var wire 1 "" branch_or_jump $end
$var wire 1 4 clk $end
$var wire 1 L rst_n $end
$var wire 1 #" stall $end
$var wire 1 $" stall_mem $end
$var wire 1 %" zero $end
$var wire 1 &" stall_load_use $end
$var wire 32 '" mux8 [31:0] $end
$var wire 32 (" mux7 [31:0] $end
$var wire 32 )" mux6 [31:0] $end
$var wire 32 *" mux5 [31:0] $end
$var wire 32 +" mux4 [31:0] $end
$var wire 32 ," mux3 [31:0] $end
$var wire 32 -" mux2 [31:0] $end
$var wire 32 ." mux1 [31:0] $end
$var wire 32 /" mem_data_MEMWB [31:0] $end
$var wire 32 0" mem_data [31:0] $end
$var wire 32 1" instruction_w [31:0] $end
$var wire 32 2" instruction_r [31:0] $end
$var wire 32 3" immgen_result_IDEX [31:0] $end
$var wire 32 4" immgen_result [31:0] $end
$var wire 32 5" alu_result_MEMWB [31:0] $end
$var wire 32 6" alu_result_EXMEM [31:0] $end
$var wire 32 7" alu_result [31:0] $end
$var wire 1 8" RegWrite_MEMWB $end
$var wire 1 9" RegWrite_IDEX $end
$var wire 1 :" RegWrite_EXMEM $end
$var wire 1 ;" RegWrite $end
$var wire 5 <" RS2addr_IDEX [4:0] $end
$var wire 32 =" RS2_data_IDEX [31:0] $end
$var wire 32 >" RS2_data_EXMEM [31:0] $end
$var wire 32 ?" RS2_data [31:0] $end
$var wire 5 @" RS1addr_IDEX [4:0] $end
$var wire 32 A" RS1_data_IDEX [31:0] $end
$var wire 32 B" RS1_data [31:0] $end
$var wire 5 C" RDaddr_MEMWB [4:0] $end
$var wire 5 D" RDaddr_IDEX [4:0] $end
$var wire 5 E" RDaddr_EXMEM [4:0] $end
$var wire 32 F" PC_r_MEMWB_plus4 [31:0] $end
$var wire 32 G" PC_r_IFID [31:0] $end
$var wire 32 H" PC_r_IDEX_plus4 [31:0] $end
$var wire 32 I" PC_r_IDEX [31:0] $end
$var wire 32 J" PC_r_EXMEM_plus4 [31:0] $end
$var wire 1 K" MemtoReg_MEMWB $end
$var wire 1 L" MemtoReg_IDEX $end
$var wire 1 M" MemtoReg_EXMEM $end
$var wire 1 N" MemtoReg $end
$var wire 1 O" MemWrite_IDEX $end
$var wire 1 P" MemWrite_EXMEM $end
$var wire 1 Q" MemWrite $end
$var wire 1 R" MemRead_IDEX $end
$var wire 1 S" MemRead_EXMEM $end
$var wire 1 T" MemRead $end
$var wire 1 U" Jalr_MEMWB $end
$var wire 1 V" Jalr_IDEX $end
$var wire 1 W" Jalr_EXMEM $end
$var wire 1 X" Jalr $end
$var wire 1 Y" Jal_MEMWB $end
$var wire 1 Z" Jal_IDEX $end
$var wire 1 [" Jal_EXMEM $end
$var wire 1 \" Jal $end
$var wire 30 ]" ICACHE_addr [29:0] $end
$var wire 2 ^" ForwardB [1:0] $end
$var wire 2 _" ForwardA [1:0] $end
$var wire 1 `" Flush_IFID $end
$var wire 1 a" Flush_IDEX $end
$var wire 32 b" DCACHE_wdata [31:0] $end
$var wire 30 c" DCACHE_addr [29:0] $end
$var wire 1 d" Branch_IDEX $end
$var wire 1 e" Branch $end
$var wire 1 f" ALUSrc_IDEX $end
$var wire 1 g" ALUSrc $end
$var wire 2 h" ALUOp_IDEX [1:0] $end
$var wire 2 i" ALUOp [1:0] $end
$var wire 4 j" ALUCtrl_in [3:0] $end
$var wire 4 k" ALUCtrl [3:0] $end
$var reg 32 l" PC_r [31:0] $end
$scope module EXMEM $end
$var wire 32 m" PC_i [31:0] $end
$var wire 1 $" Stall $end
$var wire 1 4 clk $end
$var wire 1 L rst_n $end
$var wire 1 9" RegWrite_i $end
$var wire 32 n" RS2data_i [31:0] $end
$var wire 5 o" RDaddr_i [4:0] $end
$var wire 1 L" MemtoReg_i $end
$var wire 1 O" MemWrite_i $end
$var wire 1 R" MemRead_i $end
$var wire 1 V" Jalr_i $end
$var wire 1 Z" Jal_i $end
$var wire 32 p" ALUResult_i [31:0] $end
$var reg 32 q" ALUResult_o [31:0] $end
$var reg 1 [" Jal_o $end
$var reg 1 W" Jalr_o $end
$var reg 1 S" MemRead_o $end
$var reg 1 P" MemWrite_o $end
$var reg 1 M" MemtoReg_o $end
$var reg 32 r" PC_o [31:0] $end
$var reg 5 s" RDaddr_o [4:0] $end
$var reg 32 t" RS2data_o [31:0] $end
$var reg 1 :" RegWrite_o $end
$upscope $end
$scope module Forwarding_Unit $end
$var wire 5 u" RDaddr_EXMEM_i [4:0] $end
$var wire 1 :" RegWrite_EXMEM_i $end
$var wire 1 v" cA1 $end
$var wire 1 w" cA2 $end
$var wire 1 x" cB1 $end
$var wire 1 y" cB2 $end
$var wire 2 z" tmpB [1:0] $end
$var wire 2 {" tmpA [1:0] $end
$var wire 1 8" RegWrite_MEMWB_i $end
$var wire 5 |" RS2addr_i [4:0] $end
$var wire 5 }" RS1addr_i [4:0] $end
$var wire 5 ~" RDaddr_MEMWB_i [4:0] $end
$var wire 2 !# ForwardB_o [1:0] $end
$var wire 2 "# ForwardA_o [1:0] $end
$upscope $end
$scope module Hazard_Detection_Unit $end
$var wire 1 "" BranchOrJump_i $end
$var wire 1 a" Flush_IDEX_o $end
$var wire 1 `" Flush_IFID_o $end
$var wire 5 ## RS1addr_i [4:0] $end
$var wire 5 $# RS2addr_i [4:0] $end
$var wire 1 &" Stall_load_use_o $end
$var wire 1 %# tmp $end
$var wire 5 &# RDaddr_i [4:0] $end
$var wire 1 R" MemRead_i $end
$upscope $end
$scope module IDEX $end
$var wire 1 '# Flush $end
$var wire 5 (# RDaddr_i [4:0] $end
$var wire 5 )# RS1addr_i [4:0] $end
$var wire 5 *# RS2addr_i [4:0] $end
$var wire 1 $" Stall $end
$var wire 1 4 clk $end
$var wire 4 +# funct_i [3:0] $end
$var wire 1 L rst_n $end
$var wire 32 ,# imm_i [31:0] $end
$var wire 1 ;" RegWrite_i $end
$var wire 32 -# RS2data_i [31:0] $end
$var wire 32 .# RS1data_i [31:0] $end
$var wire 32 /# PC_i [31:0] $end
$var wire 1 N" MemtoReg_i $end
$var wire 1 Q" MemWrite_i $end
$var wire 1 T" MemRead_i $end
$var wire 1 X" Jalr_i $end
$var wire 1 \" Jal_i $end
$var wire 1 e" Branch_i $end
$var wire 1 g" ALUSrc_i $end
$var wire 2 0# ALUOp_i [1:0] $end
$var reg 2 1# ALUOp_o [1:0] $end
$var reg 1 f" ALUSrc_o $end
$var reg 1 d" Branch_o $end
$var reg 1 Z" Jal_o $end
$var reg 1 V" Jalr_o $end
$var reg 1 R" MemRead_o $end
$var reg 1 O" MemWrite_o $end
$var reg 1 L" MemtoReg_o $end
$var reg 32 2# PC_o [31:0] $end
$var reg 5 3# RDaddr_o [4:0] $end
$var reg 5 4# RS1addr_o [4:0] $end
$var reg 32 5# RS1data_o [31:0] $end
$var reg 5 6# RS2addr_o [4:0] $end
$var reg 32 7# RS2data_o [31:0] $end
$var reg 1 9" RegWrite_o $end
$var reg 4 8# funct_o [3:0] $end
$var reg 32 9# imm_o [31:0] $end
$upscope $end
$scope module IFID $end
$var wire 1 :# Flush $end
$var wire 32 ;# PC_i [31:0] $end
$var wire 1 #" Stall $end
$var wire 1 4 clk $end
$var wire 32 <# instr_i [31:0] $end
$var wire 1 L rst_n $end
$var reg 32 =# PC_o [31:0] $end
$var reg 32 ># instr_o [31:0] $end
$upscope $end
$scope module MEMWB $end
$var wire 32 ?# ALUResult_i [31:0] $end
$var wire 1 [" Jal_i $end
$var wire 1 W" Jalr_i $end
$var wire 32 @# MemData_i [31:0] $end
$var wire 1 M" MemtoReg_i $end
$var wire 32 A# PC_i [31:0] $end
$var wire 5 B# RDaddr_i [4:0] $end
$var wire 1 :" RegWrite_i $end
$var wire 1 $" Stall $end
$var wire 1 4 clk $end
$var wire 1 L rst_n $end
$var reg 32 C# ALUResult_o [31:0] $end
$var reg 1 Y" Jal_o $end
$var reg 1 U" Jalr_o $end
$var reg 32 D# MemData_o [31:0] $end
$var reg 1 K" MemtoReg_o $end
$var reg 32 E# PC_o [31:0] $end
$var reg 5 F# RDaddr_o [4:0] $end
$var reg 1 8" RegWrite_o $end
$upscope $end
$scope module alu $end
$var wire 32 G# data1_i [31:0] $end
$var wire 32 H# data2_i [31:0] $end
$var wire 4 I# ALUCtrl_i [3:0] $end
$var reg 32 J# add_result [31:0] $end
$var reg 32 K# and_result [31:0] $end
$var reg 32 L# data_o [31:0] $end
$var reg 32 M# or_result [31:0] $end
$var reg 32 N# sll_result [31:0] $end
$var reg 32 O# sra_result [31:0] $end
$var reg 32 P# srl_result [31:0] $end
$var reg 32 Q# sub_result [31:0] $end
$var reg 32 R# xor_result [31:0] $end
$var reg 1 %" zero_o $end
$upscope $end
$scope module alu_control $end
$var wire 2 S# ALUOp_i [1:0] $end
$var wire 3 T# Funct3_i [2:0] $end
$var wire 1 U# Funct7_i $end
$var wire 1 V# isBEQ $end
$var wire 1 W# isBNE $end
$var wire 1 X# isSLL $end
$var wire 1 Y# isSLT $end
$var wire 1 Z# isSRA $end
$var wire 1 [# isSRL $end
$var wire 1 \# isSUB $end
$var wire 1 ]# isXOR $end
$var wire 1 ^# isOR $end
$var wire 1 _# isAND $end
$var wire 4 `# ALUCtrl_o [3:0] $end
$upscope $end
$scope module control $end
$var wire 7 a# Opcode_i [6:0] $end
$var wire 1 ;" RegWrite_o $end
$var wire 1 N" MemtoReg_o $end
$var wire 1 Q" MemWrite_o $end
$var wire 1 T" MemRead_o $end
$var wire 1 X" Jalr_o $end
$var wire 1 \" Jal_o $end
$var wire 1 e" Branch_o $end
$var wire 1 g" ALUSrc_o $end
$var wire 2 b# ALUOp_o [1:0] $end
$upscope $end
$scope module immgen $end
$var wire 32 c# instruction_i [31:0] $end
$var reg 32 d# immgen_o [31:0] $end
$upscope $end
$scope module register_file $end
$var wire 5 e# RD_address_i [4:0] $end
$var wire 32 f# RD_data_i [31:0] $end
$var wire 5 g# RS1_address_i [4:0] $end
$var wire 5 h# RS2_address_i [4:0] $end
$var wire 1 8" RegWrite_i $end
$var wire 1 4 clk_i $end
$var wire 1 L rst_n_i $end
$var reg 32 i# RS1_data_o [31:0] $end
$var reg 32 j# RS2_data_o [31:0] $end
$var integer 32 k# i [31:0] $end
$upscope $end
$upscope $end
$upscope $end
$scope module slow_memD $end
$var wire 1 4 clk $end
$var wire 28 l# mem_addr [27:0] $end
$var wire 1 ( mem_read $end
$var wire 128 m# mem_wdata [127:0] $end
$var wire 1 " mem_write $end
$var parameter 2 n# BUBBLE $end
$var parameter 2 o# IDLE $end
$var parameter 32 p# LATENCY $end
$var parameter 32 q# MEM_NUM $end
$var parameter 32 r# MEM_WIDTH $end
$var parameter 2 s# READY $end
$var parameter 2 t# WAIT $end
$var reg 28 u# mem_addr_r [27:0] $end
$var reg 128 v# mem_rdata [127:0] $end
$var reg 128 w# mem_rdata_next [127:0] $end
$var reg 1 x# mem_read_r $end
$var reg 1 & mem_ready $end
$var reg 1 y# mem_ready_next $end
$var reg 128 z# mem_wdata_r [127:0] $end
$var reg 1 {# mem_write_r $end
$var reg 2 |# state [1:0] $end
$var reg 2 }# state_next [1:0] $end
$var integer 32 ~# i [31:0] $end
$upscope $end
$scope module slow_memI $end
$var wire 1 4 clk $end
$var wire 28 !$ mem_addr [27:0] $end
$var wire 1 ' mem_read $end
$var wire 128 "$ mem_wdata [127:0] $end
$var wire 1 ! mem_write $end
$var parameter 2 #$ BUBBLE $end
$var parameter 2 $$ IDLE $end
$var parameter 32 %$ LATENCY $end
$var parameter 32 &$ MEM_NUM $end
$var parameter 32 '$ MEM_WIDTH $end
$var parameter 2 ($ READY $end
$var parameter 2 )$ WAIT $end
$var reg 28 *$ mem_addr_r [27:0] $end
$var reg 128 +$ mem_rdata [127:0] $end
$var reg 128 ,$ mem_rdata_next [127:0] $end
$var reg 1 -$ mem_read_r $end
$var reg 1 % mem_ready $end
$var reg 1 .$ mem_ready_next $end
$var reg 128 /$ mem_wdata_r [127:0] $end
$var reg 1 0$ mem_write_r $end
$var reg 2 1$ state [1:0] $end
$var reg 2 2$ state_next [1:0] $end
$var integer 32 3$ i [31:0] $end
$upscope $end
$scope module testbed $end
$var wire 30 4$ addr [29:0] $end
$var wire 1 4 clk $end
$var wire 32 5$ data [31:0] $end
$var wire 1 5 rst $end
$var wire 1 1 wen $end
$var wire 32 6$ data_modify [31:0] $end
$var parameter 2 7$ state_check $end
$var parameter 2 8$ state_idle $end
$var parameter 2 9$ state_report $end
$var reg 32 :$ answer [31:0] $end
$var reg 7 ;$ curaddr [6:0] $end
$var reg 2 <$ curstate [1:0] $end
$var reg 16 =$ duration [15:0] $end
$var reg 8 >$ error_num [7:0] $end
$var reg 1 - finish $end
$var reg 8 ?$ nxt_error_num [7:0] $end
$var reg 7 @$ nxtaddr [6:0] $end
$var reg 16 A$ nxtduration [15:0] $end
$var reg 2 B$ nxtstate [1:0] $end
$var reg 1 C$ state $end
$var reg 1 D$ state_next $end
$upscope $end
$upscope $end
$enddefinitions $end
$comment Show the parameter values. $end
$dumpall
b10 9$
b0 8$
b1 7$
b1 )$
b11 ($
b10000000 '$
b10000000000 &$
b101101 %$
b0 $$
b10 #$
b1 t#
b11 s#
b10000000 r#
b10000000000 q#
b101101 p#
b0 o#
b10 n#
b11 v
b0 u
b1 t
b11 _
b0 ^
b1 ]
$end
#0
$dumpvars
xD$
xC$
bx B$
bx A$
bx @$
bx ?$
bx >$
bx =$
bx <$
bx ;$
bx :$
bx 6$
bx 5$
bx 4$
b1000000000000 3$
bx 2$
bx 1$
x0$
bx /$
x.$
x-$
bx ,$
bx +$
bx *$
bx "$
bx !$
b1000000000000 ~#
bx }#
bx |#
x{#
bx z#
xy#
xx#
bx w#
bx v#
bx u#
bx m#
bx l#
bx k#
bx j#
bx i#
bx h#
bx g#
bx f#
bx e#
bx d#
bx c#
bx b#
bx a#
bx `#
x_#
x^#
x]#
x\#
x[#
xZ#
xY#
xX#
xW#
xV#
xU#
bx T#
bx S#
bx R#
bx Q#
bx P#
bx O#
bx N#
bx M#
b0 L#
bx K#
bx J#
bx I#
bx H#
bx G#
bx F#
bx E#
bx D#
bx C#
bx B#
bx A#
bx @#
bx ?#
bx >#
bx =#
bx <#
bx ;#
x:#
bx 9#
bx 8#
bx 7#
bx 6#
bx 5#
bx 4#
bx 3#
bx 2#
bx 1#
bx 0#
bx /#
bx .#
bx -#
bx ,#
bx +#
bx *#
bx )#
bx (#
x'#
bx &#
x%#
bx $#
bx ##
bx "#
bx !#
bx ~"
bx }"
bx |"
b0x {"
b0x z"
xy"
xx"
xw"
xv"
bx u"
bx t"
bx s"
bx r"
bx q"
b0 p"
bx o"
bx n"
bx m"
bx l"
bx k"
bx j"
bx i"
bx h"
xg"
xf"
xe"
xd"
bx c"
bx b"
xa"
x`"
bx _"
bx ^"
bx ]"
x\"
x["
xZ"
xY"
xX"
xW"
xV"
xU"
xT"
xS"
xR"
xQ"
xP"
xO"
xN"
xM"
xL"
xK"
bx J"
bx I"
bx H"
bx G"
bx F"
bx E"
bx D"
bx C"
bx B"
bx A"
bx @"
bx ?"
bx >"
bx ="
bx <"
x;"
x:"
x9"
x8"
b0 7"
bx 6"
bx 5"
bx 4"
bx 3"
bx 2"
bx 1"
bx 0"
bx /"
bx ."
bx -"
bx ,"
bx +"
bx *"
bx )"
bx ("
bx '"
x&"
x%"
x$"
x#"
x""
x!"
bx ~
b0 }
bx |
bx {
b10 z
b100 y
b0 x
bx w
xs
bx r
bx q
bx p
bx o
bx n
bx m
0l
0k
xj
xi
b0 h
xg
xf
bx e
bx d
bx c
bx b
bx a
bx `
x\
bx [
bx Z
bx Y
bx X
bx W
bx V
bx U
xT
xS
xR
xQ
xP
xO
bx N
bx M
xL
xK
xJ
bx I
bx H
bx G
bx F
xE
xD
bx C
bx B
bx A
x@
bx ?
bx >
bx =
bx <
bx ;
bx :
bx 9
08
b0 7
16
15
04
bx 3
bx 2
x1
bx 0
bx /
bx .
x-
bx ,
bx +
bx *
bx )
x(
x'
x&
x%
bx $
bx #
x"
x!
$end
#500
bx00 ,
bx00 >
bx00 [
bx00 l#
b0 X
b0 Y
b0 V
0-
b0 3
b0 G
b0 Z
b0 c"
b0 4$
0g
0P
b0 6"
b0 q"
b0 ?#
0'
0!
b0 w
1L
b100000 k#
b10 c
b100 b
b10 z
b100 y
14
#600
0D$
b0 :$
b0 B$
b11111111 ?$
b0 A$
b0 @$
0C$
b11111111 .
b11111111 >$
b0 /
b0 =$
b0 ;$
b0 <$
05
#1000
0.$
b0 2$
00$
0-$
bx00 u#
b1000000000000 3$
b1000000000000 ~#
04
#1500
1g
1P
0L
b0 5"
b0 C#
b10 z
b100 y
b10 c
b100 b
b100000 k#
14
#2000
0%
b0 1$
b1000000000000 ~#
b1000000000000 3$
04
#2500
1#"
1$"
1@
b1 x
0X"
0\"
b1 i"
b1 0#
b1 b#
0i
1j
0'#
0:#
b100 +"
0f
1;"
1g"
0a"
0`"
0""
b100 ,"
b0 _"
b0 "#
b0 ^"
b0 !#
b0 z"
b0 {"
b0 ."
b0 f#
b0 1"
b0 <#
b0 +
b0 =
b0 r
b0 !$
b0 #
b0 9
b0 e
b0 "$
1%#
b0 ?"
b0 -#
b0 j#
b0 B"
b0 .#
b0 i#
0e"
0N"
0Q"
0T"
0&"
0!"
b0 '"
0D
0v"
0x"
b0 *"
0y"
0w"
b0 A
b0 n
b0 |
b0 o
1s
b0 p
b0 m
0O
b0 4"
b0 ,#
b0 d#
b0 +#
b0 (#
b0 *#
b0 )#
b0 $#
b0 ##
b0 h#
b0 g#
b10011 a#
0V#
0X#
0W#
0T
0S
0R
0Q
b0 B
b0 q
b0 ]"
b0 ,
b0 >
b0 [
b0 l#
b0 0"
b0 @#
b0 $
b0 :
b0 N
b0 m#
b0 a
b0 G"
b0 /#
b0 =#
b10011 2"
b10011 >#
b10011 c#
b0 D"
b0 o"
b0 &#
b0 3#
b100 H"
b100 m"
b0 I"
b0 2#
0f"
b0 h"
b0 1#
b0 S#
0O"
0R"
0L"
09"
0d"
0Z"
0V"
b0 E"
b0 s"
b0 u"
b0 B#
01
0P"
0E
0S"
0M"
0:"
0["
0W"
b0 C"
b0 ~"
b0 F#
b0 e#
0K"
08"
0Y"
0U"
b0 0
b0 ?
b0 ~
b0 l"
b0 ;#
0(
0"
b0 `
b0 F
b0 W
b0 {
1\
0J
b0 H
b0 M
0K
b0 I
b0 d
b100000 k#
b10 c
b100 b
b10 z
b100 y
14
#3000
0y#
b0 }#
b0 /$
b0 *$
b0 z#
b0 u#
0{#
0x#
b1000000000000 3$
b1000000000000 ~#
04
#3500
b10 z
b100 y
b10 c
b100 b
b100000 k#
14
#4000
0&
b0 |#
b1000000000000 ~#
b1000000000000 3$
04
#4500
b100000 k#
b10 c
b100 b
b10 z
b100 y
14
#5000
b1000000000000 3$
b1000000000000 ~#
04
#5500
b10 z
b100 y
b10 c
b100 b
b100000 k#
14
#6000
b1000000000000 ~#
b1000000000000 3$
04
#6500
b100000 k#
b10 c
b100 b
b10 z
b100 y
14
#7000
b1000000000000 3$
b1000000000000 ~#
04
#7500
b10 z
b100 y
b10 c
b100 b
b100000 k#
14
#8000
b1000000000000 ~#
b1000000000000 3$
04
#8500
b100000 k#
b10 c
b100 b
b10 z
b100 y
14
#9000
b1000000000000 3$
b1000000000000 ~#
04
#9500
b10 z
b100 y
b10 c
b100 b
b100000 k#
14
#9510
15
#10000
b1000000000000 ~#
b1000000000000 3$
04
#10500
0g
0P
1L
b100000 k#
b10 c
b100 b
b10 z
b100 y
14
#11000
b1000000000000 3$
b1000000000000 ~#
04
#11500
bx H
bx M
bx I
bx d
1'
b1 w
b10 z
b100 y
b10 c
b100 b
b100000 k#
14
#12000
b1 2$
1-$
b1000000000000 ~#
b1000000000000 3$
04
#12500
b100000 k#
b10 c
b100 b
b10 z
b100 y
14
#13000
b1 1$
b1000000000000 3$
b1000000000000 ~#
04
#13500
b10 z
b100 y
b10 c
b100 b
b100000 k#
14
#14000
b1000000000000 ~#
b1000000000000 3$
04
#14500
b100000 k#
b10 c
b100 b
b10 z
b100 y
14
#15000
b1000000000000 3$
b1000000000000 ~#
04
#15500
b10 z
b100 y
b10 c
b100 b
b100000 k#
14
#16000
b1000000000000 ~#
b1000000000000 3$
04
#16500
b100000 k#
b10 c
b100 b
b10 z
b100 y
14
#17000
b1000000000000 3$
b1000000000000 ~#
04
#17500
b10 z
b100 y
b10 c
b100 b
b100000 k#
14
b10 2$
#18000
b1100111100000000000000000000000001000110010111010000000001111100110111100000000010000000000101100010011000000000000000000000000 ,$
1.$
b11 2$
b10 1$
b1000000000000 ~#
b1000000000000 3$
04
#18500
b100000 k#
b10 c
b100 b
b10 z
b100 y
14
#19000
0.$
b0 2$
b1100111100000000000000000000000001000110010111010000000001111100110111100000000010000000000101100010011000000000000000000000000 )
b1100111100000000000000000000000001000110010111010000000001111100110111100000000010000000000101100010011000000000000000000000000 ;
b1100111100000000000000000000000001000110010111010000000001111100110111100000000010000000000101100010011000000000000000000000000 +$
1%
b11 1$
b1000000000000 3$
b1000000000000 ~#
04
#19500
b0 x
1K
b1100111100000000000000000000000001000110010111010000000001111100110111100000000010000000000101100010011000000000000000000000000 I
b1100111100000000000000000000000001000110010111010000000001111100110111100000000010000000000101100010011000000000000000000000000 d
b10 z
b100 y
b10 c
b100 b
b100000 k#
14
#20000
b1 2$
0%
b0 1$
b1000000000000 ~#
b1000000000000 3$
04
#20500
0#"
0$"
0@
1i
0j
b10011 1"
b10011 <#
b0 x
0'
b0 w
b10011000000000000000000000000 A
b10011000000000000000000000000 n
b10011000000000000000000000000 |
b0 #
b0 9
b0 e
b0 "$
0K
b100000 k#
b10 c
b100 b
b10 z
b100 y
14
#21000
0-$
b1 1$
b1000000000000 3$
b1000000000000 ~#
04
#21500
b0 k"
b0 I#
b0 `#
0%"
b1011010000000000000001101111 1"
b1011010000000000000001101111 <#
b0 O#
b0 P#
b0 N#
b0 R#
b0 M#
b0 K#
b0 Q#
b0 J#
b1101111000000000100000000001011 A
b1101111000000000100000000001011 n
b1101111000000000100000000001011 |
b1 o
b1000 +"
0Y#
0[#
0Z#
b0 ("
b0 )"
b0 G#
b0 -"
b0 H#
b1 B
b1 q
b1 ]"
b1000 ,"
0_#
0^#
0]#
b0 T#
0U#
0\#
0X#
b100 0
b100 ?
b100 ~
b100 l"
b100 ;#
b0 /"
b0 D#
b100 J"
b100 r"
b100 A#
b0 3"
b0 9#
b0 <"
b0 |"
b0 6#
b0 @"
b0 }"
b0 4#
b0 j"
b0 8#
b0 ="
b0 n"
b0 7#
b0 A"
b0 5#
1f"
b1 h"
b1 1#
b1 S#
19"
b10 z
b100 y
b10 c
b100 b
b100000 k#
14
#22000
b1000000000000 ~#
b1000000000000 3$
04
#22500
b11 i"
b11 0#
b11 b#
1\"
b111110100000000010111000100011 1"
b111110100000000010111000100011 <#
b0 6$
b100011001011101000000000111110 A
b100011001011101000000000111110 n
b100011001011101000000000111110 |
b10 o
b1100 +"
b10110100 4"
b10110100 ,#
b10110100 d#
b10100 *#
b10100 $#
b10100 h#
b1101111 a#
b0 2
b0 C
b0 U
b0 b"
b0 5$
b10 B
b10 q
b10 ]"
b1100 ,"
b100 G"
b100 /#
b100 =#
b1011010000000000000001101111 2"
b1011010000000000000001101111 >#
b1011010000000000000001101111 c#
b0 >"
b0 t"
1:"
b100 F"
b100 E#
b1000 0
b1000 ?
b1000 ~
b1000 l"
b1000 ;#
b100000 k#
b10 c
b100 b
b10 z
b100 y
14
#23000
b1000000000000 3$
b1000000000000 ~#
04
#23500
0\"
1'#
b1000000001100111 1"
b1000000001100111 <#
b10110100 7"
b10110100 p"
b10110100 L#
1a"
1:#
0;"
b1100111100000000000000000000000 A
b1100111100000000000000000000000 n
b1100111100000000000000000000000 |
b11 o
b10111000 +"
b10110100 R#
b10110100 M#
b11111111111111111111111101001100 Q#
b10110100 J#
1`"
1""
b100 '"
1Q"
b11 B
b11 q
b11 ]"
b10111000 ,"
b10110100 -"
b10110100 H#
1!"
b1111111100 4"
b1111111100 ,#
b1111111100 d#
b10 +#
b11100 (#
b1000 *#
b1000 $#
b1000 h#
b100011 a#
b1100 0
b1100 ?
b1100 ~
b1100 l"
b1100 ;#
18"
b10110100 3"
b10110100 9#
b1000 H"
b1000 m"
b100 I"
b100 2#
b10100 <"
b10100 |"
b10100 6#
b11 h"
b11 1#
b11 S#
1Z"
b1000 G"
b1000 /#
b1000 =#
b111110100000000010111000100011 2"
b111110100000000010111000100011 >#
b111110100000000010111000100011 c#
b10 z
b100 y
b10 c
b100 b
b100000 k#
14
#24000
b1000000000000 ~#
b1000000000000 3$
04
