Final.vcd
$date
	Sun May 28 00:13:17 2023
$end
$version
	Icarus Verilog
$end
$timescale
	10ps
$end
$scope module Final_tb $end
$var wire 1 ! mem_write_I $end
$var wire 1 " mem_write_D $end
$var wire 128 # mem_wdata_I [127:0] $end
$var wire 128 $ mem_wdata_D [127:0] $end
$var wire 1 % mem_ready_I $end
$var wire 1 & mem_ready_D $end
$var wire 1 ' mem_read_I $end
$var wire 1 ( mem_read_D $end
$var wire 128 ) mem_rdata_I [127:0] $end
$var wire 128 * mem_rdata_D [127:0] $end
$var wire 28 + mem_addr_I [31:4] $end
$var wire 28 , mem_addr_D [31:4] $end
$var wire 1 - finish $end
$var wire 8 . error_num [7:0] $end
$var wire 16 / duration [15:0] $end
$var wire 32 0 PC [31:0] $end
$var wire 1 1 DCACHE_wen $end
$var wire 32 2 DCACHE_wdata [31:0] $end
$var wire 30 3 DCACHE_addr [29:0] $end
$var reg 1 4 clk $end
$var reg 1 5 rst_n $end
$scope module chip0 $end
$var wire 1 6 ICACHE_ren $end
$var wire 32 7 ICACHE_wdata [31:0] $end
$var wire 1 8 ICACHE_wen $end
$var wire 1 4 clk $end
$var wire 1 5 rst_n $end
$var wire 1 ! mem_write_I $end
$var wire 1 " mem_write_D $end
$var wire 128 9 mem_wdata_I [127:0] $end
$var wire 128 : mem_wdata_D [127:0] $end
$var wire 1 % mem_ready_I $end
$var wire 1 & mem_ready_D $end
$var wire 1 ' mem_read_I $end
$var wire 1 ( mem_read_D $end
$var wire 128 ; mem_rdata_I [127:0] $end
$var wire 128 < mem_rdata_D [127:0] $end
$var wire 28 = mem_addr_I [31:4] $end
$var wire 28 > mem_addr_D [31:4] $end
$var wire 32 ? PC [31:0] $end
$var wire 1 @ ICACHE_stall $end
$var wire 32 A ICACHE_rdata [31:0] $end
$var wire 30 B ICACHE_addr [29:0] $end
$var wire 1 1 DCACHE_wen $end
$var wire 32 C DCACHE_wdata [31:0] $end
$var wire 1 D DCACHE_stall $end
$var wire 1 E DCACHE_ren $end
$var wire 32 F DCACHE_rdata [31:0] $end
$var wire 30 G DCACHE_addr [29:0] $end
$scope module D_cache $end
$var wire 1 4 clk $end
$var wire 128 H mem_wdata [127:0] $end
$var wire 1 I old_valid_and_modified $end
$var wire 1 J proc_reset $end
$var wire 1 D proc_stall $end
$var wire 1 K read_hit $end
$var wire 1 L read_miss $end
$var wire 1 M write_hit $end
$var wire 1 N write_miss $end
$var wire 1 1 proc_write $end
$var wire 32 O proc_wdata [31:0] $end
$var wire 26 P proc_tag [25:0] $end
$var wire 1 E proc_read $end
$var wire 32 Q proc_rdata [31:0] $end
$var wire 2 R proc_offset [1:0] $end
$var wire 2 S proc_modulo [1:0] $end
$var wire 30 T proc_addr [29:0] $end
$var wire 1 " mem_write $end
$var wire 1 & mem_ready $end
$var wire 1 ( mem_read $end
$var wire 128 U mem_rdata [127:0] $end
$var wire 28 V mem_addr [27:0] $end
$var wire 1 W index $end
$var parameter 2 X STATE_READ $end
$var parameter 2 Y STATE_READY $end
$var parameter 2 Z STATE_WRITE $end
$var reg 2 [ state_r [1:0] $end
$var reg 2 \ state_w [1:0] $end
$var integer 32 ] i [31:0] $end
$var integer 32 ^ j [31:0] $end
$upscope $end
$scope module I_cache $end
$var wire 1 4 clk $end
$var wire 128 _ mem_wdata [127:0] $end
$var wire 1 ` old_valid_and_modified $end
$var wire 1 6 proc_read $end
$var wire 1 a proc_reset $end
$var wire 1 @ proc_stall $end
$var wire 32 b proc_wdata [31:0] $end
$var wire 1 8 proc_write $end
$var wire 1 c read_hit $end
$var wire 1 d read_miss $end
$var wire 1 e write_hit $end
$var wire 1 f write_miss $end
$var wire 26 g proc_tag [25:0] $end
$var wire 32 h proc_rdata [31:0] $end
$var wire 2 i proc_offset [1:0] $end
$var wire 2 j proc_modulo [1:0] $end
$var wire 30 k proc_addr [29:0] $end
$var wire 1 ! mem_write $end
$var wire 1 % mem_ready $end
$var wire 1 ' mem_read $end
$var wire 128 l mem_rdata [127:0] $end
$var wire 28 m mem_addr [27:0] $end
$var wire 1 n index $end
$var parameter 2 o STATE_READ $end
$var parameter 2 p STATE_READY $end
$var parameter 2 q STATE_WRITE $end
$var reg 2 r state_r [1:0] $end
$var reg 2 s state_w [1:0] $end
$var integer 32 t i [31:0] $end
$var integer 32 u j [31:0] $end
$upscope $end
$scope module i_RISCV $end
$var wire 32 v DCACHE_rdata [31:0] $end
$var wire 1 E DCACHE_ren $end
$var wire 1 D DCACHE_stall $end
$var wire 1 1 DCACHE_wen $end
$var wire 32 w ICACHE_rdata [31:0] $end
$var wire 1 6 ICACHE_ren $end
$var wire 1 @ ICACHE_stall $end
$var wire 32 x ICACHE_wdata [31:0] $end
$var wire 1 8 ICACHE_wen $end
$var wire 32 y PC [31:0] $end
$var wire 1 z branch_or_jal $end
$var wire 1 { branch_or_jump $end
$var wire 1 4 clk $end
$var wire 1 5 rst_n $end
$var wire 1 | stall $end
$var wire 1 } stall_mem $end
$var wire 1 ~ zero $end
$var wire 1 !" stall_load_use $end
$var wire 32 "" mux8 [31:0] $end
$var wire 32 #" mux7 [31:0] $end
$var wire 32 $" mux6 [31:0] $end
$var wire 32 %" mux5 [31:0] $end
$var wire 32 &" mux4 [31:0] $end
$var wire 32 '" mux3 [31:0] $end
$var wire 32 (" mux2 [31:0] $end
$var wire 32 )" mux1 [31:0] $end
$var wire 32 *" mem_data_MEMWB [31:0] $end
$var wire 32 +" mem_data [31:0] $end
$var wire 32 ," instruction_w [31:0] $end
$var wire 32 -" instruction_r [31:0] $end
$var wire 32 ." immgen_result_IDEX [31:0] $end
$var wire 32 /" immgen_result [31:0] $end
$var wire 32 0" alu_result_MEMWB [31:0] $end
$var wire 32 1" alu_result_EXMEM [31:0] $end
$var wire 32 2" alu_result [31:0] $end
$var wire 1 3" RegWrite_MEMWB $end
$var wire 1 4" RegWrite_IDEX $end
$var wire 1 5" RegWrite_EXMEM $end
$var wire 1 6" RegWrite $end
$var wire 5 7" RS2addr_IDEX [4:0] $end
$var wire 32 8" RS2_data_IDEX [31:0] $end
$var wire 32 9" RS2_data_EXMEM [31:0] $end
$var wire 32 :" RS2_data [31:0] $end
$var wire 5 ;" RS1addr_IDEX [4:0] $end
$var wire 32 <" RS1_data_IDEX [31:0] $end
$var wire 32 =" RS1_data [31:0] $end
$var wire 5 >" RDaddr_MEMWB [4:0] $end
$var wire 5 ?" RDaddr_IDEX [4:0] $end
$var wire 5 @" RDaddr_EXMEM [4:0] $end
$var wire 32 A" PC_r_MEMWB_plus4 [31:0] $end
$var wire 32 B" PC_r_IFID [31:0] $end
$var wire 32 C" PC_r_IDEX_plus4 [31:0] $end
$var wire 32 D" PC_r_IDEX [31:0] $end
$var wire 32 E" PC_r_EXMEM_plus4 [31:0] $end
$var wire 1 F" MemtoReg_MEMWB $end
$var wire 1 G" MemtoReg_IDEX $end
$var wire 1 H" MemtoReg_EXMEM $end
$var wire 1 I" MemtoReg $end
$var wire 1 J" MemWrite_IDEX $end
$var wire 1 K" MemWrite_EXMEM $end
$var wire 1 L" MemWrite $end
$var wire 1 M" MemRead_IDEX $end
$var wire 1 N" MemRead_EXMEM $end
$var wire 1 O" MemRead $end
$var wire 1 P" Jalr_MEMWB $end
$var wire 1 Q" Jalr_IDEX $end
$var wire 1 R" Jalr_EXMEM $end
$var wire 1 S" Jalr $end
$var wire 1 T" Jal_MEMWB $end
$var wire 1 U" Jal_IDEX $end
$var wire 1 V" Jal_EXMEM $end
$var wire 1 W" Jal $end
$var wire 30 X" ICACHE_addr [29:0] $end
$var wire 2 Y" ForwardB [1:0] $end
$var wire 2 Z" ForwardA [1:0] $end
$var wire 1 [" Flush_IFID $end
$var wire 1 \" Flush_IDEX $end
$var wire 32 ]" DCACHE_wdata [31:0] $end
$var wire 30 ^" DCACHE_addr [29:0] $end
$var wire 1 _" Branch_IDEX $end
$var wire 1 `" Branch $end
$var wire 1 a" ALUSrc_IDEX $end
$var wire 1 b" ALUSrc $end
$var wire 2 c" ALUOp_IDEX [1:0] $end
$var wire 2 d" ALUOp [1:0] $end
$var wire 4 e" ALUCtrl_in [3:0] $end
$var wire 4 f" ALUCtrl [3:0] $end
$var reg 32 g" PC_r [31:0] $end
$scope module EXMEM $end
$var wire 32 h" PC_i [31:0] $end
$var wire 1 } Stall $end
$var wire 1 4 clk $end
$var wire 1 5 rst_n $end
$var wire 1 4" RegWrite_i $end
$var wire 32 i" RS2data_i [31:0] $end
$var wire 5 j" RDaddr_i [4:0] $end
$var wire 1 G" MemtoReg_i $end
$var wire 1 J" MemWrite_i $end
$var wire 1 M" MemRead_i $end
$var wire 1 Q" Jalr_i $end
$var wire 1 U" Jal_i $end
$var wire 32 k" ALUResult_i [31:0] $end
$var reg 32 l" ALUResult_o [31:0] $end
$var reg 1 V" Jal_o $end
$var reg 1 R" Jalr_o $end
$var reg 1 N" MemRead_o $end
$var reg 1 K" MemWrite_o $end
$var reg 1 H" MemtoReg_o $end
$var reg 32 m" PC_o [31:0] $end
$var reg 5 n" RDaddr_o [4:0] $end
$var reg 32 o" RS2data_o [31:0] $end
$var reg 1 5" RegWrite_o $end
$upscope $end
$scope module Forwarding_Unit $end
$var wire 5 p" RDaddr_EXMEM_i [4:0] $end
$var wire 1 5" RegWrite_EXMEM_i $end
$var wire 1 q" cA1 $end
$var wire 1 r" cA2 $end
$var wire 1 s" cB1 $end
$var wire 1 t" cB2 $end
$var wire 2 u" tmpB [1:0] $end
$var wire 2 v" tmpA [1:0] $end
$var wire 1 3" RegWrite_MEMWB_i $end
$var wire 5 w" RS2addr_i [4:0] $end
$var wire 5 x" RS1addr_i [4:0] $end
$var wire 5 y" RDaddr_MEMWB_i [4:0] $end
$var wire 2 z" ForwardB_o [1:0] $end
$var wire 2 {" ForwardA_o [1:0] $end
$upscope $end
$scope module Hazard_Detection_Unit $end
$var wire 1 { BranchOrJump_i $end
$var wire 1 \" Flush_IDEX_o $end
$var wire 1 [" Flush_IFID_o $end
$var wire 5 |" RS1addr_i [4:0] $end
$var wire 5 }" RS2addr_i [4:0] $end
$var wire 1 !" Stall_load_use_o $end
$var wire 1 ~" tmp $end
$var wire 5 !# RDaddr_i [4:0] $end
$var wire 1 M" MemRead_i $end
$upscope $end
$scope module IDEX $end
$var wire 1 \" Flush $end
$var wire 5 "# RDaddr_i [4:0] $end
$var wire 5 ## RS1addr_i [4:0] $end
$var wire 5 $# RS2addr_i [4:0] $end
$var wire 1 } Stall $end
$var wire 1 4 clk $end
$var wire 4 %# funct_i [3:0] $end
$var wire 1 5 rst_n $end
$var wire 32 &# imm_i [31:0] $end
$var wire 1 6" RegWrite_i $end
$var wire 32 '# RS2data_i [31:0] $end
$var wire 32 (# RS1data_i [31:0] $end
$var wire 32 )# PC_i [31:0] $end
$var wire 1 I" MemtoReg_i $end
$var wire 1 L" MemWrite_i $end
$var wire 1 O" MemRead_i $end
$var wire 1 S" Jalr_i $end
$var wire 1 W" Jal_i $end
$var wire 1 `" Branch_i $end
$var wire 1 b" ALUSrc_i $end
$var wire 2 *# ALUOp_i [1:0] $end
$var reg 2 +# ALUOp_o [1:0] $end
$var reg 1 a" ALUSrc_o $end
$var reg 1 _" Branch_o $end
$var reg 1 U" Jal_o $end
$var reg 1 Q" Jalr_o $end
$var reg 1 M" MemRead_o $end
$var reg 1 J" MemWrite_o $end
$var reg 1 G" MemtoReg_o $end
$var reg 32 ,# PC_o [31:0] $end
$var reg 5 -# RDaddr_o [4:0] $end
$var reg 5 .# RS1addr_o [4:0] $end
$var reg 32 /# RS1data_o [31:0] $end
$var reg 5 0# RS2addr_o [4:0] $end
$var reg 32 1# RS2data_o [31:0] $end
$var reg 1 4" RegWrite_o $end
$var reg 4 2# funct_o [3:0] $end
$var reg 32 3# imm_o [31:0] $end
$upscope $end
$scope module IFID $end
$var wire 1 [" Flush $end
$var wire 32 4# PC_i [31:0] $end
$var wire 1 | Stall $end
$var wire 1 4 clk $end
$var wire 32 5# instr_i [31:0] $end
$var wire 1 5 rst_n $end
$var reg 32 6# PC_o [31:0] $end
$var reg 32 7# instr_o [31:0] $end
$upscope $end
$scope module MEMWB $end
$var wire 32 8# ALUResult_i [31:0] $end
$var wire 1 V" Jal_i $end
$var wire 1 R" Jalr_i $end
$var wire 32 9# MemData_i [31:0] $end
$var wire 1 H" MemtoReg_i $end
$var wire 32 :# PC_i [31:0] $end
$var wire 5 ;# RDaddr_i [4:0] $end
$var wire 1 5" RegWrite_i $end
$var wire 1 } Stall $end
$var wire 1 4 clk $end
$var wire 1 5 rst_n $end
$var reg 32 <# ALUResult_o [31:0] $end
$var reg 1 T" Jal_o $end
$var reg 1 P" Jalr_o $end
$var reg 32 =# MemData_o [31:0] $end
$var reg 1 F" MemtoReg_o $end
$var reg 32 ># PC_o [31:0] $end
$var reg 5 ?# RDaddr_o [4:0] $end
$var reg 1 3" RegWrite_o $end
$upscope $end
$scope module alu $end
$var wire 32 @# data1_i [31:0] $end
$var wire 32 A# data2_i [31:0] $end
$var wire 4 B# ALUCtrl_i [3:0] $end
$var reg 32 C# add_result [31:0] $end
$var reg 32 D# and_result [31:0] $end
$var reg 32 E# data_o [31:0] $end
$var reg 32 F# or_result [31:0] $end
$var reg 32 G# sll_result [31:0] $end
$var reg 32 H# sra_result [31:0] $end
$var reg 32 I# srl_result [31:0] $end
$var reg 32 J# sub_result [31:0] $end
$var reg 32 K# xor_result [31:0] $end
$var reg 1 ~ zero_o $end
$upscope $end
$scope module alu_control $end
$var wire 2 L# ALUOp_i [1:0] $end
$var wire 3 M# Funct3_i [2:0] $end
$var wire 1 N# Funct7_i $end
$var wire 1 O# isBEQ $end
$var wire 1 P# isBNE $end
$var wire 1 Q# isSLL $end
$var wire 1 R# isSLT $end
$var wire 1 S# isSRA $end
$var wire 1 T# isSRL $end
$var wire 1 U# isSUB $end
$var wire 1 V# isXOR $end
$var wire 1 W# isOR $end
$var wire 1 X# isAND $end
$var wire 4 Y# ALUCtrl_o [3:0] $end
$upscope $end
$scope module control $end
$var wire 7 Z# Opcode_i [6:0] $end
$var wire 1 6" RegWrite_o $end
$var wire 1 I" MemtoReg_o $end
$var wire 1 L" MemWrite_o $end
$var wire 1 O" MemRead_o $end
$var wire 1 S" Jalr_o $end
$var wire 1 W" Jal_o $end
$var wire 1 `" Branch_o $end
$var wire 1 b" ALUSrc_o $end
$var wire 2 [# ALUOp_o [1:0] $end
$upscope $end
$scope module immgen $end
$var wire 32 \# instruction_i [31:0] $end
$var reg 32 ]# immgen_o [31:0] $end
$upscope $end
$scope module register_file $end
$var wire 5 ^# RD_address_i [4:0] $end
$var wire 32 _# RD_data_i [31:0] $end
$var wire 5 `# RS1_address_i [4:0] $end
$var wire 5 a# RS2_address_i [4:0] $end
$var wire 1 3" RegWrite_i $end
$var wire 1 4 clk_i $end
$var wire 1 5 rst_n_i $end
$var reg 32 b# RS1_data_o [31:0] $end
$var reg 32 c# RS2_data_o [31:0] $end
$var integer 32 d# i [31:0] $end
$upscope $end
$upscope $end
$upscope $end
$scope module slow_memD $end
$var wire 1 4 clk $end
$var wire 28 e# mem_addr [27:0] $end
$var wire 1 ( mem_read $end
$var wire 128 f# mem_wdata [127:0] $end
$var wire 1 " mem_write $end
$var parameter 2 g# BUBBLE $end
$var parameter 2 h# IDLE $end
$var parameter 32 i# LATENCY $end
$var parameter 32 j# MEM_NUM $end
$var parameter 32 k# MEM_WIDTH $end
$var parameter 2 l# READY $end
$var parameter 2 m# WAIT $end
$var reg 28 n# mem_addr_r [27:0] $end
$var reg 128 o# mem_rdata [127:0] $end
$var reg 128 p# mem_rdata_next [127:0] $end
$var reg 1 q# mem_read_r $end
$var reg 1 & mem_ready $end
$var reg 1 r# mem_ready_next $end
$var reg 128 s# mem_wdata_r [127:0] $end
$var reg 1 t# mem_write_r $end
$var reg 2 u# state [1:0] $end
$var reg 2 v# state_next [1:0] $end
$var integer 32 w# i [31:0] $end
$upscope $end
$scope module slow_memI $end
$var wire 1 4 clk $end
$var wire 28 x# mem_addr [27:0] $end
$var wire 1 ' mem_read $end
$var wire 128 y# mem_wdata [127:0] $end
$var wire 1 ! mem_write $end
$var parameter 2 z# BUBBLE $end
$var parameter 2 {# IDLE $end
$var parameter 32 |# LATENCY $end
$var parameter 32 }# MEM_NUM $end
$var parameter 32 ~# MEM_WIDTH $end
$var parameter 2 !$ READY $end
$var parameter 2 "$ WAIT $end
$var reg 28 #$ mem_addr_r [27:0] $end
$var reg 128 $$ mem_rdata [127:0] $end
$var reg 128 %$ mem_rdata_next [127:0] $end
$var reg 1 &$ mem_read_r $end
$var reg 1 % mem_ready $end
$var reg 1 '$ mem_ready_next $end
$var reg 128 ($ mem_wdata_r [127:0] $end
$var reg 1 )$ mem_write_r $end
$var reg 2 *$ state [1:0] $end
$var reg 2 +$ state_next [1:0] $end
$var integer 32 ,$ i [31:0] $end
$upscope $end
$scope module testbed $end
$var wire 30 -$ addr [29:0] $end
$var wire 1 4 clk $end
$var wire 32 .$ data [31:0] $end
$var wire 1 5 rst $end
$var wire 1 1 wen $end
$var wire 32 /$ data_modify [31:0] $end
$var parameter 2 0$ state_check $end
$var parameter 2 1$ state_idle $end
$var parameter 2 2$ state_report $end
$var reg 32 3$ answer [31:0] $end
$var reg 7 4$ curaddr [6:0] $end
$var reg 2 5$ curstate [1:0] $end
$var reg 16 6$ duration [15:0] $end
$var reg 8 7$ error_num [7:0] $end
$var reg 1 - finish $end
$var reg 8 8$ nxt_error_num [7:0] $end
$var reg 7 9$ nxtaddr [6:0] $end
$var reg 16 :$ nxtduration [15:0] $end
$var reg 2 ;$ nxtstate [1:0] $end
$var reg 1 <$ state $end
$var reg 1 =$ state_next $end
$upscope $end
$upscope $end
$enddefinitions $end
$comment Show the parameter values. $end
$dumpall
b10 2$
b0 1$
b1 0$
b1 "$
b11 !$
b10000000 ~#
b10000000000 }#
b101101 |#
b0 {#
b10 z#
b1 m#
b11 l#
b10000000 k#
b10000000000 j#
b101101 i#
b0 h#
b10 g#
b11 q
b0 p
b1 o
b11 Z
b0 Y
b1 X
$end
#0
$dumpvars
x=$
x<$
bx ;$
bx :$
bx 9$
bx 8$
bx 7$
bx 6$
bx 5$
bx 4$
bx 3$
bx /$
bx .$
bx -$
b1000000000000 ,$
bx +$
bx *$
x)$
bx ($
x'$
x&$
bx %$
bx $$
bx #$
bx y#
bx x#
b1000000000000 w#
bx v#
bx u#
xt#
bx s#
xr#
xq#
bx p#
bx o#
bx n#
bx f#
bx e#
bx d#
bx c#
bx b#
bx a#
bx `#
bx _#
bx ^#
bx ]#
bx \#
bx [#
bx Z#
bx Y#
xX#
xW#
xV#
xU#
xT#
xS#
xR#
xQ#
xP#
xO#
xN#
bx M#
bx L#
bx K#
bx J#
bx I#
bx H#
bx G#
bx F#
b0 E#
bx D#
bx C#
bx B#
bx A#
bx @#
bx ?#
bx >#
bx =#
bx <#
bx ;#
bx :#
bx 9#
bx 8#
bx 7#
bx 6#
bx 5#
bx 4#
bx 3#
bx 2#
bx 1#
bx 0#
bx /#
bx .#
bx -#
bx ,#
bx +#
bx *#
bx )#
bx (#
bx '#
bx &#
bx %#
bx $#
bx ##
bx "#
bx !#
x~"
bx }"
bx |"
bx {"
bx z"
bx y"
bx x"
bx w"
b0x v"
b0x u"
xt"
xs"
xr"
xq"
bx p"
bx o"
bx n"
bx m"
bx l"
b0 k"
bx j"
bx i"
bx h"
bx g"
bx f"
bx e"
bx d"
bx c"
xb"
xa"
x`"
x_"
bx ^"
bx ]"
x\"
x["
bx Z"
bx Y"
bx X"
xW"
xV"
xU"
xT"
xS"
xR"
xQ"
xP"
xO"
xN"
xM"
xL"
xK"
xJ"
xI"
xH"
xG"
xF"
bx E"
bx D"
bx C"
bx B"
bx A"
bx @"
bx ?"
bx >"
bx ="
bx <"
bx ;"
bx :"
bx 9"
bx 8"
bx 7"
x6"
x5"
x4"
x3"
b0 2"
bx 1"
bx 0"
bx /"
bx ."
bx -"
bx ,"
bx +"
bx *"
bx )"
bx ("
bx '"
bx &"
bx %"
bx $"
bx #"
bx ""
x!"
x~
x}
x|
x{
xz
bx y
b0 x
bx w
bx v
b10 u
b100 t
b0 s
bx r
xn
bx m
bx l
bx k
bx j
bx i
bx h
bx g
0f
0e
xd
xc
b0 b
0a
x`
bx _
bx ^
bx ]
bx \
bx [
xW
bx V
bx U
bx T
bx S
bx R
bx Q
bx P
bx O
xN
xM
xL
xK
0J
xI
bx H
bx G
bx F
xE
xD
bx C
bx B
bx A
x@
bx ?
bx >
bx =
bx <
bx ;
bx :
bx 9
08
b0 7
16
15
04
bx 3
bx 2
x1
bx 0
bx /
bx .
x-
bx ,
bx +
bx *
bx )
x(
x'
x&
x%
bx $
bx #
x"
x!
$end
#500
bx00 ,
bx00 >
bx00 V
bx00 e#
b0 R
b0 S
b0 P
0-
b0 3
b0 G
b0 T
b0 ^"
b0 -$
b0 1"
b0 l"
b0 8#
0'
0!
b0 r
b100000 d#
b10 ^
b100 ]
b10 u
b100 t
14
#600
0=$
b0 3$
b0 ;$
b11111111 8$
b0 :$
b0 9$
0<$
b11111111 .
b11111111 7$
b0 /
b0 6$
b0 4$
b0 5$
1J
1a
05
#1000
0'$
b0 +$
0)$
0&$
bx00 n#
b1000000000000 ,$
b1000000000000 w#
04
#1500
1|
1}
1@
b1 s
0c
1d
0S"
0W"
b1 d"
b1 *#
b1 [#
0`
b100 &"
b0 ,"
b0 5#
b0 +
b0 =
b0 m
b0 x#
b0 #
b0 9
b0 _
b0 y#
b0 u"
b0 v"
b0 Z"
b0 {"
b0 Y"
b0 z"
0\"
0["
0{
b100 '"
16"
1b"
0I
b0 ,
b0 >
b0 V
b0 e#
b0 A
b0 h
b0 w
b0 i
1n
b0 j
b0 g
0t"
0r"
0D
0q"
0s"
0!"
0z
b0 ""
1~"
b0 :"
b0 '#
b0 c#
b0 ="
b0 (#
b0 b#
0`"
0I"
0L"
0O"
b0 $
b0 :
b0 H
b0 f#
b0 +"
b0 9#
b0 \
b0 B
b0 k
b0 X"
0N
0M
0L
0K
0O#
0Q#
0P#
b0 /"
b0 &#
b0 ]#
b0 %#
b0 "#
b0 $#
b0 ##
b0 }"
b0 |"
b0 a#
b0 `#
b10011 Z#
b0 F
b0 Q
b0 v
1W
0(
0"
b0 [
b0 0
b0 ?
b0 y
b0 g"
b0 4#
b0 >"
b0 y"
b0 ?#
b0 ^#
0F"
03"
0T"
0P"
b0 @"
b0 n"
b0 p"
b0 ;#
01
0K"
0E
0N"
0H"
05"
0V"
0R"
b0 ?"
b0 j"
b0 !#
b0 -#
b100 C"
b100 h"
b0 D"
b0 ,#
0a"
b0 c"
b0 +#
b0 L#
0J"
0M"
0G"
04"
0_"
0U"
0Q"
b0 B"
b0 )#
b0 6#
b10011 -"
b10011 7#
b10011 \#
b10 u
b100 t
b10 ^
b100 ]
b100000 d#
14
#2000
0r#
b0 v#
b10 u
b100 t
b0 s#
b0 n#
0t#
0q#
0%
b0 *$
b0 ($
b0 #$
b1000000000000 w#
b1000000000000 ,$
04
#2500
b100000 d#
b10 ^
b100 ]
b10 u
b100 t
14
#3000
b10 ^
b100 ]
0&
b0 u#
b1000000000000 ,$
b1000000000000 w#
04
#3500
b10 u
b100 t
b10 ^
b100 ]
b100000 d#
14
#4000
b1000000000000 w#
b1000000000000 ,$
04
#4500
b100000 d#
b10 ^
b100 ]
b10 u
b100 t
14
#5000
b1000000000000 ,$
b1000000000000 w#
04
#5500
b10 u
b100 t
b10 ^
b100 ]
b100000 d#
14
#6000
b1000000000000 w#
b1000000000000 ,$
04
#6500
b100000 d#
b10 ^
b100 ]
b10 u
b100 t
14
#7000
b1000000000000 ,$
b1000000000000 w#
04
#7500
b10 u
b100 t
b10 ^
b100 ]
b100000 d#
14
#8000
b1000000000000 w#
b1000000000000 ,$
04
#8500
b100000 d#
b10 ^
b100 ]
b10 u
b100 t
14
#9000
b1000000000000 ,$
b1000000000000 w#
04
#9500
b10 u
b100 t
b10 ^
b100 ]
b100000 d#
14
#9510
0J
0a
15
#10000
b1000000000000 w#
b1000000000000 ,$
04
#10500
1'
b1 r
b100000 d#
b10 ^
b100 ]
b10 u
b100 t
14
#11000
b1 +$
1&$
b1000000000000 ,$
b1000000000000 w#
04
#11500
b10 u
b100 t
b10 ^
b100 ]
b100000 d#
14
#12000
b1 *$
b1000000000000 w#
b1000000000000 ,$
04
#12500
b100000 d#
b10 ^
b100 ]
b10 u
b100 t
14
#13000
b1000000000000 ,$
b1000000000000 w#
04
#13500
b10 u
b100 t
b10 ^
b100 ]
b100000 d#
14
#14000
b1000000000000 w#
b1000000000000 ,$
04
#14500
b100000 d#
b10 ^
b100 ]
b10 u
b100 t
14
#15000
b1000000000000 ,$
b1000000000000 w#
04
#15500
b10 u
b100 t
b10 ^
b100 ]
b100000 d#
14
#16000
b1000000000000 w#
b1000000000000 ,$
04
#16500
b100000 d#
b10 ^
b100 ]
b10 u
b100 t
14
b10 +$
#17000
b1100111100000000000000000000000001000110010111010000000001111100110111100000000010000000000101100010011000000000000000000000000 %$
1'$
b11 +$
b10 *$
b1000000000000 ,$
b1000000000000 w#
04
#17500
b10 u
b100 t
b10 ^
b100 ]
b100000 d#
14
#18000
b10 u
b100 t
b0 s
0'$
b0 +$
b1100111100000000000000000000000001000110010111010000000001111100110111100000000010000000000101100010011000000000000000000000000 )
b1100111100000000000000000000000001000110010111010000000001111100110111100000000010000000000101100010011000000000000000000000000 ;
b1100111100000000000000000000000001000110010111010000000001111100110111100000000010000000000101100010011000000000000000000000000 l
b1100111100000000000000000000000001000110010111010000000001111100110111100000000010000000000101100010011000000000000000000000000 $$
1%
b11 *$
b1000000000000 w#
b1000000000000 ,$
04
#18500
0|
0}
0@
1c
0d
b0 s
b10011 ,"
b10011 5#
0'
b0 r
b10011000000000000000000000000 A
b10011000000000000000000000000 h
b10011000000000000000000000000 w
b0 #
b0 9
b0 _
b0 y#
b100000 d#
b10 ^
b100 ]
b10 u
b100 t
14
#19000
b10 u
b100 t
0&$
0%
b0 *$
b1000000000000 ,$
b1000000000000 w#
04
#19500
b0 f"
b0 B#
b0 Y#
0~
b1011010000000000000001101111 ,"
b1011010000000000000001101111 5#
b0 H#
b0 I#
b0 G#
b0 K#
b0 F#
b0 D#
b0 J#
b0 C#
b1101111000000000100000000001011 A
b1101111000000000100000000001011 h
b1101111000000000100000000001011 w
b1 i
b1000 &"
b0 )"
b0 _#
0R#
0T#
0S#
b0 #"
b0 $"
b0 @#
b0 ("
b0 A#
b1 B
b1 k
b1 X"
b1000 '"
b0 %"
0X#
0W#
0V#
b0 M#
0N#
0U#
0Q#
b100 0
b100 ?
b100 y
b100 g"
b100 4#
b0 *"
b0 =#
b0 0"
b0 <#
b100 E"
b100 m"
b100 :#
b0 ."
b0 3#
b0 7"
b0 w"
b0 0#
b0 ;"
b0 x"
b0 .#
b0 e"
b0 2#
b0 8"
b0 i"
b0 1#
b0 <"
b0 /#
1a"
b1 c"
b1 +#
b1 L#
14"
b10 u
b100 t
b10 ^
b100 ]
b100000 d#
14
#20000
b1000000000000 w#
b1000000000000 ,$
04
#20500
b11 d"
b11 *#
b11 [#
1W"
b111110100000000010111000100011 ,"
b111110100000000010111000100011 5#
b0 /$
b100011001011101000000000111110 A
b100011001011101000000000111110 h
b100011001011101000000000111110 w
b10 i
b1100 &"
b10110100 /"
b10110100 &#
b10110100 ]#
b10100 $#
b10100 }"
b10100 a#
b1101111 Z#
b0 2
b0 C
b0 O
b0 ]"
b0 .$
b10 B
b10 k
b10 X"
b1100 '"
b100 B"
b100 )#
b100 6#
b1011010000000000000001101111 -"
b1011010000000000000001101111 7#
b1011010000000000000001101111 \#
b0 9"
b0 o"
15"
b100 A"
b100 >#
b1000 0
b1000 ?
b1000 y
b1000 g"
b1000 4#
b100000 d#
b10 ^
b100 ]
b10 u
b100 t
14
#21000
b1000000000000 ,$
b1000000000000 w#
04
#21500
0W"
b1000000001100111 ,"
b1000000001100111 5#
b10110100 2"
b10110100 k"
b10110100 E#
1\"
06"
b1100111100000000000000000000000 A
b1100111100000000000000000000000 h
b1100111100000000000000000000000 w
b11 i
b10111000 &"
b10110100 K#
b10110100 F#
b11111111111111111111111101001100 J#
b10110100 C#
1["
1{
b100 ""
1L"
b11 B
b11 k
b11 X"
b10111000 '"
b10110100 ("
b10110100 A#
1z
b1111111100 /"
b1111111100 &#
b1111111100 ]#
b10 %#
b11100 "#
b1000 $#
b1000 }"
b1000 a#
b100011 Z#
b1100 0
b1100 ?
b1100 y
b1100 g"
b1100 4#
13"
b10110100 ."
b10110100 3#
b1000 C"
b1000 h"
b100 D"
b100 ,#
b10100 7"
b10100 w"
b10100 0#
b11 c"
b11 +#
b11 L#
1U"
b1000 B"
b1000 )#
b1000 6#
b111110100000000010111000100011 -"
b111110100000000010111000100011 7#
b111110100000000010111000100011 \#
b10 u
b100 t
b10 ^
b100 ]
b100000 d#
14
#22000
b1000000000000 w#
b1000000000000 ,$
04
