Final.vcd
$date
	Mon Jun 05 21:40:33 2023
$end
$version
	Icarus Verilog
$end
$timescale
	10ps
$end
$scope module Final_tb $end
$var wire 1 ! mem_write_I $end
$var wire 1 " mem_write_D $end
$var wire 128 # mem_wdata_I [127:0] $end
$var wire 128 $ mem_wdata_D [127:0] $end
$var wire 1 % mem_ready_I $end
$var wire 1 & mem_ready_D $end
$var wire 1 ' mem_read_I $end
$var wire 1 ( mem_read_D $end
$var wire 128 ) mem_rdata_I [127:0] $end
$var wire 128 * mem_rdata_D [127:0] $end
$var wire 28 + mem_addr_I [31:4] $end
$var wire 28 , mem_addr_D [31:4] $end
$var wire 1 - finish $end
$var wire 8 . error_num [7:0] $end
$var wire 16 / duration [15:0] $end
$var wire 32 0 PC [31:0] $end
$var wire 1 1 DCACHE_wen $end
$var wire 32 2 DCACHE_wdata [31:0] $end
$var wire 30 3 DCACHE_addr [29:0] $end
$var reg 1 4 clk $end
$var reg 1 5 rst_n $end
$scope module chip0 $end
$var wire 1 6 ICACHE_ren $end
$var wire 32 7 ICACHE_wdata [31:0] $end
$var wire 1 8 ICACHE_wen $end
$var wire 1 4 clk $end
$var wire 128 9 mem_rdata_D_wire [127:0] $end
$var wire 128 : mem_rdata_I_wire [127:0] $end
$var wire 1 ; mem_ready_D_wire $end
$var wire 1 < mem_ready_I_wire $end
$var wire 1 5 rst_n $end
$var wire 1 ! mem_write_I $end
$var wire 1 " mem_write_D $end
$var wire 128 = mem_wdata_I [127:0] $end
$var wire 128 > mem_wdata_D [127:0] $end
$var wire 1 % mem_ready_I $end
$var wire 1 & mem_ready_D $end
$var wire 1 ' mem_read_I $end
$var wire 1 ( mem_read_D $end
$var wire 128 ? mem_rdata_I [127:0] $end
$var wire 128 @ mem_rdata_D [127:0] $end
$var wire 28 A mem_addr_I [31:4] $end
$var wire 28 B mem_addr_D [31:4] $end
$var wire 32 C PC [31:0] $end
$var wire 1 D ICACHE_stall $end
$var wire 32 E ICACHE_rdata [31:0] $end
$var wire 30 F ICACHE_addr [29:0] $end
$var wire 1 1 DCACHE_wen $end
$var wire 32 G DCACHE_wdata [31:0] $end
$var wire 1 H DCACHE_stall $end
$var wire 1 I DCACHE_ren $end
$var wire 32 J DCACHE_rdata [31:0] $end
$var wire 30 K DCACHE_addr [29:0] $end
$var reg 128 L mem_rdata_D_reg [127:0] $end
$var reg 128 M mem_rdata_I_reg [127:0] $end
$var reg 1 N mem_ready_D_reg $end
$var reg 1 O mem_ready_I_reg $end
$scope module D_cache $end
$var wire 1 4 clk $end
$var wire 128 P mem_rdata [127:0] $end
$var wire 1 ; mem_ready $end
$var wire 128 Q mem_wdata [127:0] $end
$var wire 1 R old_valid_and_modified $end
$var wire 1 S proc_reset $end
$var wire 1 H proc_stall $end
$var wire 1 T read_hit $end
$var wire 1 U read_miss $end
$var wire 1 V write_hit $end
$var wire 1 W write_miss $end
$var wire 1 1 proc_write $end
$var wire 32 X proc_wdata [31:0] $end
$var wire 26 Y proc_tag [25:0] $end
$var wire 1 I proc_read $end
$var wire 32 Z proc_rdata [31:0] $end
$var wire 2 [ proc_offset [1:0] $end
$var wire 2 \ proc_modulo [1:0] $end
$var wire 30 ] proc_addr [29:0] $end
$var wire 1 " mem_write $end
$var wire 1 ( mem_read $end
$var wire 28 ^ mem_addr [27:0] $end
$var wire 1 _ index $end
$var parameter 2 ` STATE_READ $end
$var parameter 2 a STATE_READY $end
$var parameter 2 b STATE_WRITE $end
$var reg 2 c state_r [1:0] $end
$var reg 2 d state_w [1:0] $end
$var integer 32 e i [31:0] $end
$var integer 32 f j [31:0] $end
$upscope $end
$scope module I_cache $end
$var wire 1 4 clk $end
$var wire 128 g mem_rdata [127:0] $end
$var wire 1 < mem_ready $end
$var wire 128 h mem_wdata [127:0] $end
$var wire 1 i old_valid_and_modified $end
$var wire 1 6 proc_read $end
$var wire 1 j proc_reset $end
$var wire 1 D proc_stall $end
$var wire 32 k proc_wdata [31:0] $end
$var wire 1 8 proc_write $end
$var wire 1 l read_hit $end
$var wire 1 m read_miss $end
$var wire 1 n write_hit $end
$var wire 1 o write_miss $end
$var wire 26 p proc_tag [25:0] $end
$var wire 32 q proc_rdata [31:0] $end
$var wire 2 r proc_offset [1:0] $end
$var wire 2 s proc_modulo [1:0] $end
$var wire 30 t proc_addr [29:0] $end
$var wire 1 ! mem_write $end
$var wire 1 ' mem_read $end
$var wire 28 u mem_addr [27:0] $end
$var wire 1 v index $end
$var parameter 2 w STATE_READ $end
$var parameter 2 x STATE_READY $end
$var parameter 2 y STATE_WRITE $end
$var reg 2 z state_r [1:0] $end
$var reg 2 { state_w [1:0] $end
$var integer 32 | i [31:0] $end
$var integer 32 } j [31:0] $end
$upscope $end
$scope module i_RISCV $end
$var wire 32 ~ DCACHE_rdata [31:0] $end
$var wire 1 I DCACHE_ren $end
$var wire 1 H DCACHE_stall $end
$var wire 1 1 DCACHE_wen $end
$var wire 32 !" ICACHE_rdata [31:0] $end
$var wire 1 6 ICACHE_ren $end
$var wire 1 D ICACHE_stall $end
$var wire 32 "" ICACHE_wdata [31:0] $end
$var wire 1 8 ICACHE_wen $end
$var wire 32 #" PC [31:0] $end
$var wire 1 $" branch_or_jal $end
$var wire 1 %" branch_or_jump $end
$var wire 1 4 clk $end
$var wire 1 5 rst_n $end
$var wire 1 &" stall $end
$var wire 1 '" stall_mem $end
$var wire 1 (" zero $end
$var wire 1 )" stall_load_use $end
$var wire 32 *" mux9 [31:0] $end
$var wire 32 +" mux8 [31:0] $end
$var wire 32 ," mux7 [31:0] $end
$var wire 32 -" mux6 [31:0] $end
$var wire 32 ." mux5 [31:0] $end
$var wire 32 /" mux4 [31:0] $end
$var wire 32 0" mux3 [31:0] $end
$var wire 32 1" mux2 [31:0] $end
$var wire 32 2" mux1 [31:0] $end
$var wire 32 3" mem_data_MEMWB [31:0] $end
$var wire 32 4" mem_data [31:0] $end
$var wire 1 5" is_compress $end
$var wire 32 6" instruction_w [31:0] $end
$var wire 32 7" instruction_IFID [31:0] $end
$var wire 32 8" immgen_result_IDEX [31:0] $end
$var wire 32 9" immgen_result [31:0] $end
$var wire 32 :" decompressed_instruction [31:0] $end
$var wire 1 ;" compress_IDEX $end
$var wire 32 <" alu_result_MEMWB [31:0] $end
$var wire 32 =" alu_result_EXMEM [31:0] $end
$var wire 32 >" alu_result [31:0] $end
$var wire 1 ?" RegWrite_MEMWB $end
$var wire 1 @" RegWrite_IDEX $end
$var wire 1 A" RegWrite_EXMEM $end
$var wire 1 B" RegWrite $end
$var wire 5 C" RS2addr_IDEX [4:0] $end
$var wire 32 D" RS2_data_IDEX [31:0] $end
$var wire 32 E" RS2_data_EXMEM [31:0] $end
$var wire 32 F" RS2_data [31:0] $end
$var wire 5 G" RS1addr_IDEX [4:0] $end
$var wire 32 H" RS1_data_IDEX [31:0] $end
$var wire 32 I" RS1_data [31:0] $end
$var wire 5 J" RDaddr_MEMWB [4:0] $end
$var wire 5 K" RDaddr_IDEX [4:0] $end
$var wire 5 L" RDaddr_EXMEM [4:0] $end
$var wire 32 M" PC_r_plus2 [31:0] $end
$var wire 32 N" PC_r_MEMWB_plus4 [31:0] $end
$var wire 32 O" PC_r_IFID [31:0] $end
$var wire 32 P" PC_r_IDEX_plus4 [31:0] $end
$var wire 32 Q" PC_r_IDEX [31:0] $end
$var wire 32 R" PC_r_EXMEM_plus4 [31:0] $end
$var wire 1 S" MemtoReg_MEMWB $end
$var wire 1 T" MemtoReg_IDEX $end
$var wire 1 U" MemtoReg_EXMEM $end
$var wire 1 V" MemtoReg $end
$var wire 1 W" MemWrite_IDEX $end
$var wire 1 X" MemWrite_EXMEM $end
$var wire 1 Y" MemWrite $end
$var wire 1 Z" MemRead_IDEX $end
$var wire 1 [" MemRead_EXMEM $end
$var wire 1 \" MemRead $end
$var wire 1 ]" Jalr_MEMWB $end
$var wire 1 ^" Jalr_IDEX $end
$var wire 1 _" Jalr_EXMEM $end
$var wire 1 `" Jalr $end
$var wire 1 a" Jal_MEMWB $end
$var wire 1 b" Jal_IDEX $end
$var wire 1 c" Jal_EXMEM $end
$var wire 1 d" Jal $end
$var wire 30 e" ICACHE_addr [29:0] $end
$var wire 2 f" ForwardB [1:0] $end
$var wire 2 g" ForwardA [1:0] $end
$var wire 1 h" Flush_IFID $end
$var wire 1 i" Flush_IDEX $end
$var wire 32 j" DCACHE_wdata [31:0] $end
$var wire 30 k" DCACHE_addr [29:0] $end
$var wire 1 l" Branch_IDEX $end
$var wire 1 m" Branch $end
$var wire 1 n" ALUSrc_IDEX $end
$var wire 1 o" ALUSrc $end
$var wire 2 p" ALUOp_IDEX [1:0] $end
$var wire 2 q" ALUOp [1:0] $end
$var wire 4 r" ALUCtrl_in [3:0] $end
$var wire 4 s" ALUCtrl [3:0] $end
$var parameter 2 t" COMPLETE $end
$var parameter 2 u" INCOMPLETE $end
$var parameter 2 v" PREPARE $end
$var reg 32 w" PC_r [31:0] $end
$var reg 16 x" compression_buffer_r [15:0] $end
$var reg 16 y" compression_buffer_w [15:0] $end
$var reg 2 z" state_r [1:0] $end
$var reg 2 {" state_w [1:0] $end
$var reg 32 |" true_instruction [31:0] $end
$scope module EXMEM $end
$var wire 32 }" PC_i [31:0] $end
$var wire 1 '" Stall $end
$var wire 1 4 clk $end
$var wire 1 5 rst_n $end
$var wire 1 @" RegWrite_i $end
$var wire 32 ~" RS2data_i [31:0] $end
$var wire 5 !# RDaddr_i [4:0] $end
$var wire 1 T" MemtoReg_i $end
$var wire 1 W" MemWrite_i $end
$var wire 1 Z" MemRead_i $end
$var wire 1 ^" Jalr_i $end
$var wire 1 b" Jal_i $end
$var wire 32 "# ALUResult_i [31:0] $end
$var reg 32 ## ALUResult_o [31:0] $end
$var reg 1 c" Jal_o $end
$var reg 1 _" Jalr_o $end
$var reg 1 [" MemRead_o $end
$var reg 1 X" MemWrite_o $end
$var reg 1 U" MemtoReg_o $end
$var reg 32 $# PC_o [31:0] $end
$var reg 5 %# RDaddr_o [4:0] $end
$var reg 32 &# RS2data_o [31:0] $end
$var reg 1 A" RegWrite_o $end
$upscope $end
$scope module Forwarding_Unit $end
$var wire 5 '# RDaddr_EXMEM_i [4:0] $end
$var wire 1 A" RegWrite_EXMEM_i $end
$var wire 1 (# cA1 $end
$var wire 1 )# cA2 $end
$var wire 1 *# cB1 $end
$var wire 1 +# cB2 $end
$var wire 2 ,# tmpB [1:0] $end
$var wire 2 -# tmpA [1:0] $end
$var wire 1 ?" RegWrite_MEMWB_i $end
$var wire 5 .# RS2addr_i [4:0] $end
$var wire 5 /# RS1addr_i [4:0] $end
$var wire 5 0# RDaddr_MEMWB_i [4:0] $end
$var wire 2 1# ForwardB_o [1:0] $end
$var wire 2 2# ForwardA_o [1:0] $end
$upscope $end
$scope module Hazard_Detection_Unit $end
$var wire 1 %" BranchOrJump_i $end
$var wire 1 i" Flush_IDEX_o $end
$var wire 1 h" Flush_IFID_o $end
$var wire 5 3# RS1addr_i [4:0] $end
$var wire 5 4# RS2addr_i [4:0] $end
$var wire 1 )" Stall_load_use_o $end
$var wire 1 5# tmp $end
$var wire 5 6# RDaddr_i [4:0] $end
$var wire 1 Z" MemRead_i $end
$upscope $end
$scope module IDEX $end
$var wire 1 7# Flush $end
$var wire 5 8# RDaddr_i [4:0] $end
$var wire 5 9# RS1addr_i [4:0] $end
$var wire 5 :# RS2addr_i [4:0] $end
$var wire 1 '" Stall $end
$var wire 1 4 clk $end
$var wire 1 5" compress_i $end
$var wire 4 ;# funct_i [3:0] $end
$var wire 1 5 rst_n $end
$var wire 32 <# imm_i [31:0] $end
$var wire 1 B" RegWrite_i $end
$var wire 32 =# RS2data_i [31:0] $end
$var wire 32 ># RS1data_i [31:0] $end
$var wire 32 ?# PC_i [31:0] $end
$var wire 1 V" MemtoReg_i $end
$var wire 1 Y" MemWrite_i $end
$var wire 1 \" MemRead_i $end
$var wire 1 `" Jalr_i $end
$var wire 1 d" Jal_i $end
$var wire 1 m" Branch_i $end
$var wire 1 o" ALUSrc_i $end
$var wire 2 @# ALUOp_i [1:0] $end
$var reg 2 A# ALUOp_o [1:0] $end
$var reg 1 n" ALUSrc_o $end
$var reg 1 l" Branch_o $end
$var reg 1 b" Jal_o $end
$var reg 1 ^" Jalr_o $end
$var reg 1 Z" MemRead_o $end
$var reg 1 W" MemWrite_o $end
$var reg 1 T" MemtoReg_o $end
$var reg 32 B# PC_o [31:0] $end
$var reg 5 C# RDaddr_o [4:0] $end
$var reg 5 D# RS1addr_o [4:0] $end
$var reg 32 E# RS1data_o [31:0] $end
$var reg 5 F# RS2addr_o [4:0] $end
$var reg 32 G# RS2data_o [31:0] $end
$var reg 1 @" RegWrite_o $end
$var reg 1 ;" compress_o $end
$var reg 4 H# funct_o [3:0] $end
$var reg 32 I# imm_o [31:0] $end
$upscope $end
$scope module IFID $end
$var wire 1 J# Flush $end
$var wire 32 K# PC_i [31:0] $end
$var wire 1 &" Stall $end
$var wire 1 4 clk $end
$var wire 32 L# instr_i [31:0] $end
$var wire 1 5 rst_n $end
$var reg 32 M# PC_o [31:0] $end
$var reg 32 N# instr_o [31:0] $end
$upscope $end
$scope module MEMWB $end
$var wire 32 O# ALUResult_i [31:0] $end
$var wire 1 c" Jal_i $end
$var wire 1 _" Jalr_i $end
$var wire 32 P# MemData_i [31:0] $end
$var wire 1 U" MemtoReg_i $end
$var wire 32 Q# PC_i [31:0] $end
$var wire 5 R# RDaddr_i [4:0] $end
$var wire 1 A" RegWrite_i $end
$var wire 1 '" Stall $end
$var wire 1 4 clk $end
$var wire 1 5 rst_n $end
$var reg 32 S# ALUResult_o [31:0] $end
$var reg 1 a" Jal_o $end
$var reg 1 ]" Jalr_o $end
$var reg 32 T# MemData_o [31:0] $end
$var reg 1 S" MemtoReg_o $end
$var reg 32 U# PC_o [31:0] $end
$var reg 5 V# RDaddr_o [4:0] $end
$var reg 1 ?" RegWrite_o $end
$upscope $end
$scope module alu $end
$var wire 32 W# data1_i [31:0] $end
$var wire 32 X# data2_i [31:0] $end
$var wire 4 Y# ALUCtrl_i [3:0] $end
$var reg 32 Z# add_result [31:0] $end
$var reg 32 [# and_result [31:0] $end
$var reg 32 \# data_o [31:0] $end
$var reg 32 ]# or_result [31:0] $end
$var reg 32 ^# sll_result [31:0] $end
$var reg 32 _# sra_result [31:0] $end
$var reg 32 `# srl_result [31:0] $end
$var reg 32 a# sub_result [31:0] $end
$var reg 32 b# xor_result [31:0] $end
$var reg 1 (" zero_o $end
$upscope $end
$scope module alu_control $end
$var wire 2 c# ALUOp_i [1:0] $end
$var wire 3 d# Funct3_i [2:0] $end
$var wire 1 e# Funct7_i $end
$var wire 1 f# isBEQ $end
$var wire 1 g# isBNE $end
$var wire 1 h# isSLL $end
$var wire 1 i# isSLT $end
$var wire 1 j# isSRA $end
$var wire 1 k# isSRL $end
$var wire 1 l# isSUB $end
$var wire 1 m# isXOR $end
$var wire 1 n# isOR $end
$var wire 1 o# isAND $end
$var wire 4 p# ALUCtrl_o [3:0] $end
$upscope $end
$scope module control $end
$var wire 7 q# Opcode_i [6:0] $end
$var wire 1 B" RegWrite_o $end
$var wire 1 V" MemtoReg_o $end
$var wire 1 Y" MemWrite_o $end
$var wire 1 \" MemRead_o $end
$var wire 1 `" Jalr_o $end
$var wire 1 d" Jal_o $end
$var wire 1 m" Branch_o $end
$var wire 1 o" ALUSrc_o $end
$var wire 2 r# ALUOp_o [1:0] $end
$upscope $end
$scope module decompressor $end
$var wire 1 5" decompress_i $end
$var wire 32 s# instr_i [31:0] $end
$var wire 1 t# is_add $end
$var wire 1 u# is_addi $end
$var wire 1 v# is_andi $end
$var wire 1 w# is_beqz $end
$var wire 1 x# is_bnez $end
$var wire 1 y# is_j $end
$var wire 1 z# is_jal $end
$var wire 1 {# is_jalr $end
$var wire 1 |# is_jr $end
$var wire 1 }# is_lw $end
$var wire 1 ~# is_mv $end
$var wire 1 !$ is_slli $end
$var wire 1 "$ is_srai $end
$var wire 1 #$ is_srli $end
$var wire 1 $$ is_sw $end
$var wire 32 %$ instr_o [31:0] $end
$var reg 32 &$ decompressed_instr [31:0] $end
$upscope $end
$scope module immgen $end
$var wire 32 '$ instruction_i [31:0] $end
$var reg 32 ($ immgen_o [31:0] $end
$upscope $end
$scope module register_file $end
$var wire 5 )$ RD_address_i [4:0] $end
$var wire 32 *$ RD_data_i [31:0] $end
$var wire 5 +$ RS1_address_i [4:0] $end
$var wire 5 ,$ RS2_address_i [4:0] $end
$var wire 1 ?" RegWrite_i $end
$var wire 1 4 clk_i $end
$var wire 1 5 rst_n_i $end
$var reg 32 -$ RS1_data_o [31:0] $end
$var reg 32 .$ RS2_data_o [31:0] $end
$var integer 32 /$ i [31:0] $end
$upscope $end
$upscope $end
$upscope $end
$scope module slow_memD $end
$var wire 1 4 clk $end
$var wire 28 0$ mem_addr [27:0] $end
$var wire 1 ( mem_read $end
$var wire 128 1$ mem_wdata [127:0] $end
$var wire 1 " mem_write $end
$var parameter 2 2$ BUBBLE $end
$var parameter 2 3$ IDLE $end
$var parameter 32 4$ LATENCY $end
$var parameter 32 5$ MEM_NUM $end
$var parameter 32 6$ MEM_WIDTH $end
$var parameter 2 7$ READY $end
$var parameter 2 8$ WAIT $end
$var reg 28 9$ mem_addr_r [27:0] $end
$var reg 128 :$ mem_rdata [127:0] $end
$var reg 128 ;$ mem_rdata_next [127:0] $end
$var reg 1 <$ mem_read_r $end
$var reg 1 & mem_ready $end
$var reg 1 =$ mem_ready_next $end
$var reg 128 >$ mem_wdata_r [127:0] $end
$var reg 1 ?$ mem_write_r $end
$var reg 2 @$ state [1:0] $end
$var reg 2 A$ state_next [1:0] $end
$var integer 32 B$ i [31:0] $end
$upscope $end
$scope module slow_memI $end
$var wire 1 4 clk $end
$var wire 28 C$ mem_addr [27:0] $end
$var wire 1 ' mem_read $end
$var wire 128 D$ mem_wdata [127:0] $end
$var wire 1 ! mem_write $end
$var parameter 2 E$ BUBBLE $end
$var parameter 2 F$ IDLE $end
$var parameter 32 G$ LATENCY $end
$var parameter 32 H$ MEM_NUM $end
$var parameter 32 I$ MEM_WIDTH $end
$var parameter 2 J$ READY $end
$var parameter 2 K$ WAIT $end
$var reg 28 L$ mem_addr_r [27:0] $end
$var reg 128 M$ mem_rdata [127:0] $end
$var reg 128 N$ mem_rdata_next [127:0] $end
$var reg 1 O$ mem_read_r $end
$var reg 1 % mem_ready $end
$var reg 1 P$ mem_ready_next $end
$var reg 128 Q$ mem_wdata_r [127:0] $end
$var reg 1 R$ mem_write_r $end
$var reg 2 S$ state [1:0] $end
$var reg 2 T$ state_next [1:0] $end
$var integer 32 U$ i [31:0] $end
$upscope $end
$scope module testbed $end
$var wire 30 V$ addr [29:0] $end
$var wire 1 4 clk $end
$var wire 32 W$ data [31:0] $end
$var wire 1 5 rst $end
$var wire 1 1 wen $end
$var wire 32 X$ data_modify [31:0] $end
$var parameter 2 Y$ state_check $end
$var parameter 2 Z$ state_idle $end
$var parameter 2 [$ state_report $end
$var reg 32 \$ answer [31:0] $end
$var reg 5 ]$ curaddr [4:0] $end
$var reg 2 ^$ curstate [1:0] $end
$var reg 16 _$ duration [15:0] $end
$var reg 8 `$ error_num [7:0] $end
$var reg 1 - finish $end
$var reg 8 a$ nxt_error_num [7:0] $end
$var reg 5 b$ nxtaddr [4:0] $end
$var reg 16 c$ nxtduration [15:0] $end
$var reg 2 d$ nxtstate [1:0] $end
$var reg 1 e$ state $end
$var reg 1 f$ state_next $end
$upscope $end
$upscope $end
$enddefinitions $end
$comment Show the parameter values. $end
$dumpall
b10 [$
b0 Z$
b1 Y$
b1 K$
b11 J$
b10000000 I$
b10000000000 H$
b101101 G$
b0 F$
b10 E$
b1 8$
b11 7$
b10000000 6$
b10000000000 5$
b101101 4$
b0 3$
b10 2$
b10 v"
b1 u"
b0 t"
b11 y
b0 x
b1 w
b11 b
b0 a
b1 `
$end
#0
$dumpvars
xf$
xe$
bx d$
bx c$
bx b$
bx a$
bx `$
bx _$
bx ^$
bx ]$
bx \$
bx X$
bx W$
bx V$
b1000000000000 U$
bx T$
bx S$
xR$
bx Q$
xP$
xO$
bx N$
bx M$
bx L$
bx D$
bx C$
b1000000000000 B$
bx A$
bx @$
x?$
bx >$
x=$
x<$
bx ;$
bx :$
bx 9$
bx 1$
bx 0$
bx /$
bx .$
bx -$
bx ,$
bx +$
bx *$
bx )$
bx ($
bx '$
bx &$
bx %$
x$$
x#$
x"$
x!$
x~#
x}#
x|#
x{#
xz#
xy#
xx#
xw#
xv#
xu#
xt#
bx s#
bx r#
bx q#
bx p#
xo#
xn#
xm#
xl#
xk#
xj#
xi#
xh#
xg#
xf#
xe#
bx d#
bx c#
bx b#
bx a#
bx `#
bx _#
bx ^#
bx ]#
b0 \#
bx [#
bx Z#
bx Y#
bx X#
bx W#
bx V#
bx U#
bx T#
bx S#
bx R#
bx Q#
bx P#
bx O#
bx N#
bx M#
bx L#
bx K#
xJ#
bx I#
bx H#
bx G#
bx F#
bx E#
bx D#
bx C#
bx B#
bx A#
bx @#
bx ?#
bx >#
bx =#
bx <#
bx ;#
bx :#
bx 9#
bx 8#
x7#
bx 6#
x5#
bx 4#
bx 3#
bx 2#
bx 1#
bx 0#
bx /#
bx .#
b0x -#
b0x ,#
x+#
x*#
x)#
x(#
bx '#
bx &#
bx %#
bx $#
bx ##
b0 "#
bx !#
bx ~"
bx }"
bx |"
bx {"
bx z"
bx y"
bx x"
bx w"
bx s"
bx r"
bx q"
bx p"
xo"
xn"
xm"
xl"
bx k"
bx j"
xi"
xh"
bx g"
bx f"
bx e"
xd"
xc"
xb"
xa"
x`"
x_"
x^"
x]"
x\"
x["
xZ"
xY"
xX"
xW"
xV"
xU"
xT"
xS"
bx R"
bx Q"
bx P"
bx O"
bx N"
bx M"
bx L"
bx K"
bx J"
bx I"
bx H"
bx G"
bx F"
bx E"
bx D"
bx C"
xB"
xA"
x@"
x?"
b0 >"
bx ="
bx <"
x;"
bx :"
bx 9"
bx 8"
bx 7"
bx 6"
x5"
bx 4"
bx 3"
bx 2"
bx 1"
bx 0"
bx /"
bx ."
bx -"
bx ,"
bx +"
bx *"
x)"
x("
x'"
x&"
x%"
x$"
bx #"
b0 ""
bx !"
bx ~
b10 }
b100 |
b0 {
bx z
xv
bx u
bx t
bx s
bx r
bx q
bx p
0o
0n
xm
xl
b0 k
0j
xi
bx h
bx g
bx f
bx e
bx d
bx c
x_
bx ^
bx ]
bx \
bx [
bx Z
bx Y
bx X
xW
xV
xU
xT
0S
xR
bx Q
bx P
xO
xN
bx M
bx L
bx K
bx J
xI
xH
bx G
bx F
bx E
xD
bx C
bx B
bx A
bx @
bx ?
bx >
bx =
x<
x;
bx :
bx 9
08
b0 7
16
15
04
bx 3
bx 2
x1
bx 0
bx /
bx .
x-
bx ,
bx +
bx *
bx )
x(
x'
x&
x%
bx $
bx #
x"
x!
$end
#500
bx00 ,
bx00 B
bx00 ^
bx00 0$
b0 [
b0 \
b0 Y
0-
b0 3
b0 K
b0 ]
b0 k"
b0 V$
b0 ="
b0 ##
b0 O#
0'
0!
b0 z
b100000 /$
b10 f
b100 e
b10 }
b100 |
14
#600
0f$
b1101111010101101 \$
b0 d$
b11111111 a$
b0 c$
b0 b$
0e$
b11111111 .
b11111111 `$
b0 /
b0 _$
b0 ]$
b0 ^$
1S
1j
05
#1000
0P$
b0 T$
0R$
0O$
bx00 9$
b1000000000000 U$
b1000000000000 B$
04
#1500
1&"
1'"
1D
b1 {
0`"
0d"
b1 q"
b1 @#
b1 r#
0l
1m
b0 |"
b0 L#
b0 y"
0i
1B"
1o"
b0 6"
b0 +
b0 A
b0 u
b0 C$
b0 #
b0 =
b0 h
b0 D$
07#
0J#
15#
b0 F"
b0 =#
b0 .$
b0 I"
b0 >#
b0 -$
0m"
0V"
0Y"
0\"
0~#
0t#
b10 /"
b0 E
b0 q
b0 !"
b0 r
1v
b0 s
b0 p
b0 ,#
b0 -#
b0 g"
b0 2#
b0 f"
b0 1#
0i"
0h"
0%"
b0 ;#
b0 8#
b0 :#
b0 9#
b0 4#
b0 3#
b0 ,$
b0 +$
b10011 q#
b0 9"
b0 <#
b0 ($
0u#
0z#
0#$
0"$
0v#
0R
b0 ,
b0 B
b0 ^
b0 0$
b10 0"
b0 F
b0 t
b0 e"
0+#
0)#
0H
0(#
0*#
0)"
0$"
b0 +"
b10011 :"
b10011 %$
b10011 '$
0}#
0$$
0y#
0w#
0x#
0!$
0|#
0{#
b0 $
b0 >
b0 Q
b0 1$
b0 4"
b0 P#
b0 d
b10 *"
b1 {"
0W
0V
0U
0T
b100 P"
b100 }"
0f#
0h#
0g#
b10000000000000001101111 &$
05"
b0 J
b0 Z
b0 ~
1_
0(
0"
b0 c
b10 M"
b0 0
b0 C
b0 #"
b0 w"
b0 K#
b0 x"
b0 z"
b0 J"
b0 0#
b0 V#
b0 )$
0S"
0?"
0a"
0]"
b0 L"
b0 %#
b0 '#
b0 R#
01
0X"
0I
0["
0U"
0A"
0c"
0_"
b0 K"
b0 !#
b0 6#
b0 C#
b0 Q"
b0 B#
0n"
b0 p"
b0 A#
b0 c#
0W"
0Z"
0T"
0@"
0l"
0b"
0^"
0;"
b0 O"
b0 ?#
b0 M#
b10011 7"
b10011 N#
b10011 s#
b10 }
b100 |
b10 f
b100 e
b100000 /$
14
#2000
0=$
b0 A$
b0 >$
b0 9$
0?$
0<$
0%
b0 S$
b0 Q$
b0 L$
b1000000000000 B$
b1000000000000 U$
04
#2500
0<
0O
b100000 /$
b10 f
b100 e
b10 }
b100 |
14
#3000
0&
b0 @$
b1000000000000 U$
b1000000000000 B$
04
#3500
0;
0N
b10 }
b100 |
b10 f
b100 e
b100000 /$
14
#4000
b1000000000000 B$
b1000000000000 U$
04
#4500
b100000 /$
b10 f
b100 e
b10 }
b100 |
14
#5000
b1000000000000 U$
b1000000000000 B$
04
#5500
b10 }
b100 |
b10 f
b100 e
b100000 /$
14
#6000
b1000000000000 B$
b1000000000000 U$
04
#6500
b100000 /$
b10 f
b100 e
b10 }
b100 |
14
#7000
b1000000000000 U$
b1000000000000 B$
04
#7500
b10 }
b100 |
b10 f
b100 e
b100000 /$
14
#8000
b1000000000000 B$
b1000000000000 U$
04
#8500
b100000 /$
b10 f
b100 e
b10 }
b100 |
14
#9000
b1000000000000 U$
b1000000000000 B$
04
#9500
b10 }
b100 |
b10 f
b100 e
b100000 /$
14
#9510
0S
0j
15
#10000
b1000000000000 B$
b1000000000000 U$
04
#10500
1'
b1 z
b100000 /$
b10 f
b100 e
b10 }
b100 |
14
#11000
b1 T$
1O$
b1000000000000 U$
b1000000000000 B$
04
#11500
b10 }
b100 |
b10 f
b100 e
b100000 /$
14
#12000
b1 S$
b1000000000000 B$
b1000000000000 U$
04
#12500
b100000 /$
b10 f
b100 e
b10 }
b100 |
14
#13000
b1000000000000 U$
b1000000000000 B$
04
#13500
b10 }
b100 |
b10 f
b100 e
b100000 /$
14
#14000
b1000000000000 B$
b1000000000000 U$
04
#14500
b100000 /$
b10 f
b100 e
b10 }
b100 |
14
#15000
b1000000000000 U$
b1000000000000 B$
04
#15500
b10 }
b100 |
b10 f
b100 e
b100000 /$
14
#16000
b1000000000000 B$
b1000000000000 U$
04
#16500
b100000 /$
b10 f
b100 e
b10 }
b100 |
14
b10 T$
#17000
b100011001000001000011100000100011011110000000011000000000001010001001100000000000000000000000000010011000000000000000000000000 N$
1P$
b11 T$
b10 S$
b1000000000000 U$
b1000000000000 B$
04
#17500
b10 }
b100 |
b10 f
b100 e
b100000 /$
14
#18000
0P$
b0 T$
b100011001000001000011100000100011011110000000011000000000001010001001100000000000000000000000000010011000000000000000000000000 )
b100011001000001000011100000100011011110000000011000000000001010001001100000000000000000000000000010011000000000000000000000000 ?
b100011001000001000011100000100011011110000000011000000000001010001001100000000000000000000000000010011000000000000000000000000 M$
1%
b11 S$
b1000000000000 B$
b1000000000000 U$
04
#18500
b0 {
1<
1O
b100011001000001000011100000100011011110000000011000000000001010001001100000000000000000000000000010011000000000000000000000000 :
b100011001000001000011100000100011011110000000011000000000001010001001100000000000000000000000000010011000000000000000000000000 g
b100011001000001000011100000100011011110000000011000000000001010001001100000000000000000000000000010011000000000000000000000000 M
b100000 /$
b10 f
b100 e
b10 }
b100 |
14
#19000
b1 T$
0%
b0 S$
b1000000000000 U$
b1000000000000 B$
04
#19500
0&"
b100 /"
0'"
b100 0"
0D
b100 *"
1l
0m
b10011 |"
b10011 L#
b0 {"
b10011 6"
b0 {
0<
0O
b10011000000000000000000000000 E
b10011000000000000000000000000 q
b10011000000000000000000000000 !"
b0 #
b0 =
b0 h
b0 D$
0'
b0 z
b10 }
b100 |
b10 f
b100 e
b100000 /$
14
#20000
b1 S$
0O$
b1000000000000 B$
b1000000000000 U$
04
#20500
b0 s"
b0 Y#
b0 p#
0("
b0 _#
b0 `#
b0 ^#
b0 b#
b0 ]#
b0 [#
b0 a#
b0 Z#
b1000 /"
b1 r
0i#
0k#
0j#
b0 ,"
b0 -"
b0 W#
b0 1"
b0 X#
b0 2"
b0 *$
b1000 0"
b1 F
b1 t
b1 e"
0o#
0n#
0m#
b0 d#
0e#
0l#
0h#
b0 ."
b1000 *"
b0 8"
b0 I#
b0 C"
b0 .#
b0 F#
b0 G"
b0 /#
b0 D#
b0 r"
b0 H#
b0 D"
b0 ~"
b0 G#
b0 H"
b0 E#
1n"
b1 p"
b1 A#
b1 c#
1@"
b100 R"
b100 $#
b100 Q#
b0 3"
b0 T#
b0 <"
b0 S#
b110 M"
b100 0
b100 C
b100 #"
b100 w"
b100 K#
b100000 /$
b10 f
b100 e
b10 }
b100 |
14
