Q_Sort/data_gen/Final.vcd
$date
	Fri Jun 16 00:07:31 2023
$end
$version
	Icarus Verilog
$end
$timescale
	10ps
$end
$scope module Final_scoring $end
$var wire 128 ! mem_wdata_I [127:0] $end
$var wire 1 " mem_write_I $end
$var wire 1 # mem_write_D $end
$var wire 128 $ mem_wdata_D [127:0] $end
$var wire 1 % mem_ready_I $end
$var wire 1 & mem_ready_D $end
$var wire 1 ' mem_read_I $end
$var wire 1 ( mem_read_D $end
$var wire 128 ) mem_rdata_I [127:0] $end
$var wire 128 * mem_rdata_D [127:0] $end
$var wire 28 + mem_addr_I [31:4] $end
$var wire 28 , mem_addr_D [31:4] $end
$var wire 1 - finish $end
$var wire 9 . error_num [8:0] $end
$var wire 32 / PC [31:0] $end
$var wire 1 0 DCACHE_wen $end
$var wire 32 1 DCACHE_wdata [31:0] $end
$var wire 30 2 DCACHE_addr [29:0] $end
$var reg 1 3 clk $end
$var reg 1 4 rst_n $end
$scope module chip0 $end
$var wire 32 5 ICACHE_wdata [31:0] $end
$var wire 1 6 ICACHE_wen $end
$var wire 1 3 clk $end
$var wire 128 7 mem_rdata_D_wire [127:0] $end
$var wire 128 8 mem_rdata_I_wire [127:0] $end
$var wire 1 9 mem_ready_D_wire $end
$var wire 1 : mem_ready_I_wire $end
$var wire 128 ; mem_wdata_I [127:0] $end
$var wire 1 " mem_write_I $end
$var wire 1 4 rst_n $end
$var wire 1 # mem_write_D $end
$var wire 128 < mem_wdata_D [127:0] $end
$var wire 1 % mem_ready_I $end
$var wire 1 & mem_ready_D $end
$var wire 1 ' mem_read_I $end
$var wire 1 ( mem_read_D $end
$var wire 128 = mem_rdata_I [127:0] $end
$var wire 128 > mem_rdata_D [127:0] $end
$var wire 28 ? mem_addr_I [31:4] $end
$var wire 28 @ mem_addr_D [31:4] $end
$var wire 32 A PC [31:0] $end
$var wire 1 B ICACHE_stall $end
$var wire 1 C ICACHE_ren $end
$var wire 32 D ICACHE_rdata [31:0] $end
$var wire 30 E ICACHE_addr [29:0] $end
$var wire 1 0 DCACHE_wen $end
$var wire 32 F DCACHE_wdata [31:0] $end
$var wire 1 G DCACHE_stall $end
$var wire 1 H DCACHE_ren $end
$var wire 32 I DCACHE_rdata [31:0] $end
$var wire 30 J DCACHE_addr [29:0] $end
$var reg 128 K mem_rdata_D_reg [127:0] $end
$var reg 128 L mem_rdata_I_reg [127:0] $end
$var reg 1 9 mem_ready_D_reg $end
$var reg 1 : mem_ready_I_reg $end
$scope module D_cache $end
$var wire 1 3 clk $end
$var wire 1 M hit $end
$var wire 128 N mem_rdata [127:0] $end
$var wire 1 ( mem_read $end
$var wire 1 9 mem_ready $end
$var wire 128 O mem_wdata [127:0] $end
$var wire 1 # mem_write $end
$var wire 1 P old_valid_and_modified $end
$var wire 1 Q proc_reset $end
$var wire 1 G proc_stall $end
$var wire 1 R read_hit $end
$var wire 1 S read_miss $end
$var wire 1 T write_hit $end
$var wire 1 U write_miss $end
$var wire 1 0 proc_write $end
$var wire 32 V proc_wdata [31:0] $end
$var wire 26 W proc_tag [25:0] $end
$var wire 1 H proc_read $end
$var wire 32 X proc_rdata [31:0] $end
$var wire 2 Y proc_offset [1:0] $end
$var wire 2 Z proc_modulo [1:0] $end
$var wire 30 [ proc_addr [29:0] $end
$var wire 28 \ mem_addr [27:0] $end
$var wire 1 ] index $end
$var parameter 2 ^ STATE_READ $end
$var parameter 2 _ STATE_READY $end
$var parameter 2 ` STATE_WRITE $end
$var reg 2 a state_r [1:0] $end
$var reg 2 b state_w [1:0] $end
$var integer 32 c i [31:0] $end
$var integer 32 d j [31:0] $end
$upscope $end
$scope module I_cache $end
$var wire 1 3 clk $end
$var wire 1 e hit $end
$var wire 128 f mem_rdata [127:0] $end
$var wire 1 ' mem_read $end
$var wire 1 : mem_ready $end
$var wire 128 g mem_wdata [127:0] $end
$var wire 1 " mem_write $end
$var wire 1 h proc_reset $end
$var wire 1 B proc_stall $end
$var wire 32 i proc_wdata [31:0] $end
$var wire 1 6 proc_write $end
$var wire 1 j read_hit $end
$var wire 1 k read_miss $end
$var wire 26 l proc_tag [25:0] $end
$var wire 1 C proc_read $end
$var wire 32 m proc_rdata [31:0] $end
$var wire 2 n proc_offset [1:0] $end
$var wire 2 o proc_modulo [1:0] $end
$var wire 30 p proc_addr [29:0] $end
$var wire 28 q mem_addr [27:0] $end
$var wire 1 r index $end
$var parameter 1 s STATE_READ $end
$var parameter 1 t STATE_READY $end
$var reg 1 u state_r $end
$var reg 1 v state_w $end
$var integer 32 w i [31:0] $end
$var integer 32 x j [31:0] $end
$upscope $end
$scope module i_RISCV $end
$var wire 32 y DCACHE_rdata [31:0] $end
$var wire 1 H DCACHE_ren $end
$var wire 1 G DCACHE_stall $end
$var wire 1 0 DCACHE_wen $end
$var wire 32 z ICACHE_rdata [31:0] $end
$var wire 1 B ICACHE_stall $end
$var wire 32 { ICACHE_wdata [31:0] $end
$var wire 1 6 ICACHE_wen $end
$var wire 32 | PC [31:0] $end
$var wire 1 } branch_or_jump $end
$var wire 1 3 clk $end
$var wire 1 ~ is_jal $end
$var wire 1 !" predict_wrong $end
$var wire 1 4 rst_n $end
$var wire 1 "" stall $end
$var wire 1 #" stall_mem $end
$var wire 1 $" zero $end
$var wire 1 %" stall_load_use $end
$var wire 32 &" mux9 [31:0] $end
$var wire 32 '" mux8 [31:0] $end
$var wire 32 (" mux7 [31:0] $end
$var wire 32 )" mux6 [31:0] $end
$var wire 32 *" mux5 [31:0] $end
$var wire 32 +" mux4 [31:0] $end
$var wire 32 ," mux3 [31:0] $end
$var wire 32 -" mux2 [31:0] $end
$var wire 32 ." mux10 [31:0] $end
$var wire 32 /" mux1 [31:0] $end
$var wire 32 0" mem_data_MEMWB [31:0] $end
$var wire 32 1" mem_data [31:0] $end
$var wire 1 2" is_compress $end
$var wire 32 3" instruction_w [31:0] $end
$var wire 32 4" instruction_IFID [31:0] $end
$var wire 32 5" immgen_result_IDEX [31:0] $end
$var wire 32 6" immgen_result [31:0] $end
$var wire 32 7" decompressed_instruction [31:0] $end
$var wire 1 8" compress_IDEX $end
$var wire 32 9" alu_result_MEMWB [31:0] $end
$var wire 32 :" alu_result_EXMEM [31:0] $end
$var wire 32 ;" alu_result [31:0] $end
$var wire 1 <" Stall_jal $end
$var wire 1 =" RegWrite_MEMWB $end
$var wire 1 >" RegWrite_IDEX $end
$var wire 1 ?" RegWrite_EXMEM $end
$var wire 1 @" RegWrite $end
$var wire 5 A" RS2addr_IDEX [4:0] $end
$var wire 32 B" RS2_data_IDEX [31:0] $end
$var wire 32 C" RS2_data_EXMEM [31:0] $end
$var wire 32 D" RS2_data [31:0] $end
$var wire 5 E" RS1addr_IDEX [4:0] $end
$var wire 32 F" RS1_data_IDEX [31:0] $end
$var wire 32 G" RS1_data [31:0] $end
$var wire 5 H" RDaddr_MEMWB [4:0] $end
$var wire 5 I" RDaddr_IDEX [4:0] $end
$var wire 5 J" RDaddr_EXMEM [4:0] $end
$var wire 32 K" PC_r_plus2 [31:0] $end
$var wire 32 L" PC_r_MEMWB_plus4 [31:0] $end
$var wire 32 M" PC_r_IFID [31:0] $end
$var wire 32 N" PC_r_IDEX_plus4 [31:0] $end
$var wire 32 O" PC_r_IDEX [31:0] $end
$var wire 32 P" PC_r_EXMEM_plus4 [31:0] $end
$var wire 32 Q" PC_predict [31:0] $end
$var wire 32 R" PC_add_imm [31:0] $end
$var wire 1 S" MemtoReg_MEMWB $end
$var wire 1 T" MemtoReg_IDEX $end
$var wire 1 U" MemtoReg_EXMEM $end
$var wire 1 V" MemtoReg $end
$var wire 1 W" MemWrite_IDEX $end
$var wire 1 X" MemWrite_EXMEM $end
$var wire 1 Y" MemWrite $end
$var wire 1 Z" MemRead_IDEX $end
$var wire 1 [" MemRead_EXMEM $end
$var wire 1 \" MemRead $end
$var wire 1 ]" Jalr_MEMWB $end
$var wire 1 ^" Jalr_IDEX $end
$var wire 1 _" Jalr_EXMEM $end
$var wire 1 `" Jalr $end
$var wire 1 a" Jal_MEMWB $end
$var wire 1 b" Jal_IDEX $end
$var wire 1 c" Jal_EXMEM $end
$var wire 1 d" Jal $end
$var wire 1 C ICACHE_ren $end
$var wire 30 e" ICACHE_addr [29:0] $end
$var wire 2 f" ForwardB [1:0] $end
$var wire 2 g" ForwardA [1:0] $end
$var wire 1 h" Flush_IFID $end
$var wire 1 i" Flush_IDEX $end
$var wire 32 j" DCACHE_wdata [31:0] $end
$var wire 30 k" DCACHE_addr [29:0] $end
$var wire 1 l" Branch_IDEX $end
$var wire 1 m" Branch $end
$var wire 1 n" ALUSrc_IDEX $end
$var wire 1 o" ALUSrc $end
$var wire 2 p" ALUOp_IDEX [1:0] $end
$var wire 2 q" ALUOp [1:0] $end
$var wire 4 r" ALUCtrl_in [3:0] $end
$var wire 4 s" ALUCtrl [3:0] $end
$var parameter 2 t" COMPLETE $end
$var parameter 2 u" INCOMPLETE $end
$var parameter 2 v" PREPARE $end
$var reg 32 w" PC_r [31:0] $end
$var reg 16 x" compression_buffer_r [15:0] $end
$var reg 16 y" compression_buffer_w [15:0] $end
$var reg 2 z" state_r [1:0] $end
$var reg 2 {" state_w [1:0] $end
$var reg 32 |" true_instruction [31:0] $end
$scope module EXMEM $end
$var wire 32 }" PC_i [31:0] $end
$var wire 32 ~" RS2data_i [31:0] $end
$var wire 1 #" Stall $end
$var wire 1 3 clk $end
$var wire 1 4 rst_n $end
$var wire 1 >" RegWrite_i $end
$var wire 5 !# RDaddr_i [4:0] $end
$var wire 1 T" MemtoReg_i $end
$var wire 1 W" MemWrite_i $end
$var wire 1 Z" MemRead_i $end
$var wire 1 ^" Jalr_i $end
$var wire 1 b" Jal_i $end
$var wire 32 "# ALUResult_i [31:0] $end
$var reg 32 ## ALUResult_o [31:0] $end
$var reg 1 c" Jal_o $end
$var reg 1 _" Jalr_o $end
$var reg 1 [" MemRead_o $end
$var reg 1 X" MemWrite_o $end
$var reg 1 U" MemtoReg_o $end
$var reg 32 $# PC_o [31:0] $end
$var reg 5 %# RDaddr_o [4:0] $end
$var reg 32 &# RS2data_o [31:0] $end
$var reg 1 ?" RegWrite_o $end
$upscope $end
$scope module Forwarding_Unit $end
$var wire 5 '# RDaddr_EXMEM_i [4:0] $end
$var wire 1 ?" RegWrite_EXMEM_i $end
$var wire 1 (# cA1 $end
$var wire 1 )# cA2 $end
$var wire 1 *# cB1 $end
$var wire 1 +# cB2 $end
$var wire 2 ,# tmpB [1:0] $end
$var wire 2 -# tmpA [1:0] $end
$var wire 1 =" RegWrite_MEMWB_i $end
$var wire 5 .# RS2addr_i [4:0] $end
$var wire 5 /# RS1addr_i [4:0] $end
$var wire 5 0# RDaddr_MEMWB_i [4:0] $end
$var wire 2 1# ForwardB_o [1:0] $end
$var wire 2 2# ForwardA_o [1:0] $end
$upscope $end
$scope module Hazard_Detection_Unit $end
$var wire 1 i" Flush_IDEX_o $end
$var wire 1 h" Flush_IFID_o $end
$var wire 1 ~ Jal_IF_i $end
$var wire 1 } Predict_wrong_i $end
$var wire 5 3# RS1addr_i [4:0] $end
$var wire 5 4# RS2addr_i [4:0] $end
$var wire 1 <" Stall_jal_o $end
$var wire 1 %" Stall_load_use_o $end
$var wire 1 5# tmp $end
$var wire 5 6# RDaddr_i [4:0] $end
$var wire 1 7# RDRS2 $end
$var wire 1 8# RDRS1 $end
$var wire 1 Z" MemRead_i $end
$var wire 1 `" Jalr_ID_i $end
$var wire 1 b" Jal_EX_i $end
$var wire 1 m" Branch_ID_i $end
$upscope $end
$scope module IDEX $end
$var wire 1 9# Flush $end
$var wire 5 :# RDaddr_i [4:0] $end
$var wire 5 ;# RS1addr_i [4:0] $end
$var wire 5 <# RS2addr_i [4:0] $end
$var wire 1 #" Stall $end
$var wire 1 3 clk $end
$var wire 1 2" compress_i $end
$var wire 4 =# funct_i [3:0] $end
$var wire 1 4 rst_n $end
$var wire 32 ># imm_i [31:0] $end
$var wire 1 @" RegWrite_i $end
$var wire 32 ?# RS2data_i [31:0] $end
$var wire 32 @# RS1data_i [31:0] $end
$var wire 32 A# PC_i [31:0] $end
$var wire 1 V" MemtoReg_i $end
$var wire 1 Y" MemWrite_i $end
$var wire 1 \" MemRead_i $end
$var wire 1 `" Jalr_i $end
$var wire 1 d" Jal_i $end
$var wire 1 m" Branch_i $end
$var wire 1 o" ALUSrc_i $end
$var wire 2 B# ALUOp_i [1:0] $end
$var reg 2 C# ALUOp_o [1:0] $end
$var reg 1 n" ALUSrc_o $end
$var reg 1 l" Branch_o $end
$var reg 1 b" Jal_o $end
$var reg 1 ^" Jalr_o $end
$var reg 1 Z" MemRead_o $end
$var reg 1 W" MemWrite_o $end
$var reg 1 T" MemtoReg_o $end
$var reg 32 D# PC_o [31:0] $end
$var reg 5 E# RDaddr_o [4:0] $end
$var reg 5 F# RS1addr_o [4:0] $end
$var reg 32 G# RS1data_o [31:0] $end
$var reg 5 H# RS2addr_o [4:0] $end
$var reg 32 I# RS2data_o [31:0] $end
$var reg 1 >" RegWrite_o $end
$var reg 1 8" compress_o $end
$var reg 4 J# funct_o [3:0] $end
$var reg 32 K# imm_o [31:0] $end
$upscope $end
$scope module IFID $end
$var wire 1 L# Flush $end
$var wire 32 M# PC_i [31:0] $end
$var wire 1 N# Stall $end
$var wire 1 3 clk $end
$var wire 32 O# instr_i [31:0] $end
$var wire 1 4 rst_n $end
$var reg 32 P# PC_o [31:0] $end
$var reg 32 Q# instr_o [31:0] $end
$upscope $end
$scope module MEMWB $end
$var wire 32 R# ALUResult_i [31:0] $end
$var wire 1 c" Jal_i $end
$var wire 1 _" Jalr_i $end
$var wire 32 S# MemData_i [31:0] $end
$var wire 1 U" MemtoReg_i $end
$var wire 32 T# PC_i [31:0] $end
$var wire 5 U# RDaddr_i [4:0] $end
$var wire 1 ?" RegWrite_i $end
$var wire 1 #" Stall $end
$var wire 1 3 clk $end
$var wire 1 4 rst_n $end
$var reg 32 V# ALUResult_o [31:0] $end
$var reg 1 a" Jal_o $end
$var reg 1 ]" Jalr_o $end
$var reg 32 W# MemData_o [31:0] $end
$var reg 1 S" MemtoReg_o $end
$var reg 32 X# PC_o [31:0] $end
$var reg 5 Y# RDaddr_o [4:0] $end
$var reg 1 =" RegWrite_o $end
$upscope $end
$scope module PC_predictor $end
$var wire 32 Z# PC [31:0] $end
$var wire 32 [# instr [31:0] $end
$var wire 1 \# is_compress $end
$var wire 32 ]# PC_predict [31:0] $end
$var reg 32 ^# imm [31:0] $end
$upscope $end
$scope module alu $end
$var wire 32 _# data1_i [31:0] $end
$var wire 32 `# data2_i [31:0] $end
$var wire 4 a# ALUCtrl_i [3:0] $end
$var reg 32 b# add_result [31:0] $end
$var reg 32 c# and_result [31:0] $end
$var reg 32 d# data_o [31:0] $end
$var reg 32 e# or_result [31:0] $end
$var reg 32 f# sll_result [31:0] $end
$var reg 32 g# sra_result [31:0] $end
$var reg 32 h# srl_result [31:0] $end
$var reg 32 i# sub_result [31:0] $end
$var reg 32 j# xor_result [31:0] $end
$var reg 1 $" zero_o $end
$upscope $end
$scope module alu_control $end
$var wire 2 k# ALUOp_i [1:0] $end
$var wire 3 l# Funct3_i [2:0] $end
$var wire 1 m# Funct7_i $end
$var wire 1 n# isBEQ $end
$var wire 1 o# isBNE $end
$var wire 1 p# isSLL $end
$var wire 1 q# isSLT $end
$var wire 1 r# isSRA $end
$var wire 1 s# isSRL $end
$var wire 1 t# isSUB $end
$var wire 1 u# isXOR $end
$var wire 1 v# isOR $end
$var wire 1 w# isAND $end
$var wire 4 x# ALUCtrl_o [3:0] $end
$upscope $end
$scope module control $end
$var wire 7 y# Opcode_i [6:0] $end
$var wire 1 @" RegWrite_o $end
$var wire 1 V" MemtoReg_o $end
$var wire 1 Y" MemWrite_o $end
$var wire 1 \" MemRead_o $end
$var wire 1 `" Jalr_o $end
$var wire 1 d" Jal_o $end
$var wire 1 m" Branch_o $end
$var wire 1 o" ALUSrc_o $end
$var wire 2 z# ALUOp_o [1:0] $end
$upscope $end
$scope module decompressor $end
$var wire 1 2" decompress_i $end
$var wire 32 {# instr_i [31:0] $end
$var wire 1 |# is_add $end
$var wire 1 }# is_addi $end
$var wire 1 ~# is_andi $end
$var wire 1 !$ is_beqz $end
$var wire 1 "$ is_bnez $end
$var wire 1 #$ is_j $end
$var wire 1 $$ is_jal $end
$var wire 1 %$ is_jalr $end
$var wire 1 &$ is_jr $end
$var wire 1 '$ is_lw $end
$var wire 1 ($ is_mv $end
$var wire 1 )$ is_slli $end
$var wire 1 *$ is_srai $end
$var wire 1 +$ is_srli $end
$var wire 1 ,$ is_sw $end
$var wire 32 -$ instr_o [31:0] $end
$var reg 32 .$ decompressed_instr [31:0] $end
$upscope $end
$scope module immgen $end
$var wire 32 /$ instruction_i [31:0] $end
$var reg 32 0$ immgen_o [31:0] $end
$upscope $end
$scope module register_file $end
$var wire 5 1$ RD_address_i [4:0] $end
$var wire 32 2$ RD_data_i [31:0] $end
$var wire 5 3$ RS1_address_i [4:0] $end
$var wire 5 4$ RS2_address_i [4:0] $end
$var wire 1 =" RegWrite_i $end
$var wire 1 3 clk_i $end
$var wire 1 4 rst_n_i $end
$var reg 32 5$ RS1_data_o [31:0] $end
$var reg 32 6$ RS2_data_o [31:0] $end
$var integer 32 7$ i [31:0] $end
$upscope $end
$upscope $end
$upscope $end
$scope module slow_memD $end
$var wire 1 3 clk $end
$var wire 28 8$ mem_addr [27:0] $end
$var wire 1 ( mem_read $end
$var wire 128 9$ mem_wdata [127:0] $end
$var wire 1 # mem_write $end
$var parameter 2 :$ BUBBLE $end
$var parameter 2 ;$ IDLE $end
$var parameter 32 <$ LATENCY $end
$var parameter 32 =$ MEM_NUM $end
$var parameter 32 >$ MEM_WIDTH $end
$var parameter 2 ?$ READY $end
$var parameter 2 @$ WAIT $end
$var reg 28 A$ mem_addr_r [27:0] $end
$var reg 128 B$ mem_rdata [127:0] $end
$var reg 128 C$ mem_rdata_next [127:0] $end
$var reg 1 D$ mem_read_r $end
$var reg 1 & mem_ready $end
$var reg 1 E$ mem_ready_next $end
$var reg 128 F$ mem_wdata_r [127:0] $end
$var reg 1 G$ mem_write_r $end
$var reg 2 H$ state [1:0] $end
$var reg 2 I$ state_next [1:0] $end
$var integer 32 J$ i [31:0] $end
$upscope $end
$scope module slow_memI $end
$var wire 1 3 clk $end
$var wire 28 K$ mem_addr [27:0] $end
$var wire 1 ' mem_read $end
$var wire 128 L$ mem_wdata [127:0] $end
$var wire 1 " mem_write $end
$var parameter 2 M$ BUBBLE $end
$var parameter 2 N$ IDLE $end
$var parameter 32 O$ LATENCY $end
$var parameter 32 P$ MEM_NUM $end
$var parameter 32 Q$ MEM_WIDTH $end
$var parameter 2 R$ READY $end
$var parameter 2 S$ WAIT $end
$var reg 28 T$ mem_addr_r [27:0] $end
$var reg 128 U$ mem_rdata [127:0] $end
$var reg 128 V$ mem_rdata_next [127:0] $end
$var reg 1 W$ mem_read_r $end
$var reg 1 % mem_ready $end
$var reg 1 X$ mem_ready_next $end
$var reg 128 Y$ mem_wdata_r [127:0] $end
$var reg 1 Z$ mem_write_r $end
$var reg 2 [$ state [1:0] $end
$var reg 2 \$ state_next [1:0] $end
$var integer 32 ]$ i [31:0] $end
$upscope $end
$scope module testbed $end
$var wire 32 ^$ PC [31:0] $end
$var wire 30 _$ addr [29:0] $end
$var wire 1 3 clk $end
$var wire 32 `$ data [31:0] $end
$var wire 9 a$ error_num [8:0] $end
$var wire 1 - finish $end
$var wire 1 4 rst $end
$var wire 1 0 wen $end
$var wire 32 b$ pseudo_dec [31:0] $end
$var wire 32 c$ golden_dec [31:0] $end
$var parameter 32 d$ S_CHECK $end
$var parameter 32 e$ S_END $end
$var parameter 32 f$ S_IDLE $end
$var parameter 32 g$ S_REPORT $end
$var reg 10 h$ counter_r [9:0] $end
$var reg 10 i$ counter_w [9:0] $end
$var reg 9 j$ error_num_r [8:0] $end
$var reg 9 k$ error_num_w [8:0] $end
$var reg 1 l$ finish_r $end
$var reg 1 m$ finish_w $end
$var reg 2 n$ state_r [1:0] $end
$var reg 2 o$ state_w [1:0] $end
$upscope $end
$upscope $end
$enddefinitions $end
$comment Show the parameter values. $end
$dumpall
b10 g$
b0 f$
b11 e$
b1 d$
b1 S$
b11 R$
b10000000 Q$
b10000000000 P$
b101101 O$
b0 N$
b10 M$
b1 @$
b11 ?$
b10000000 >$
b10000000000 =$
b101101 <$
b0 ;$
b10 :$
b10 v"
b1 u"
b0 t"
0t
1s
b11 `
b0 _
b1 ^
$end
#0
$dumpvars
bx o$
bx n$
xm$
xl$
bx k$
bx j$
bx i$
bx h$
bx c$
bx b$
bx a$
bx `$
bx _$
bx ^$
b1000000000000 ]$
b0 \$
bx [$
0Z$
b0 Y$
0X$
xW$
bx V$
bx U$
bx T$
b0 L$
bx K$
b1000000000000 J$
bx I$
bx H$
xG$
bx F$
xE$
xD$
bx C$
bx B$
bx A$
bx 9$
bx 8$
bx 7$
bx 6$
bx 5$
bx 4$
bx 3$
bx 2$
bx 1$
bx 0$
bx /$
bx .$
bx -$
x,$
x+$
x*$
x)$
x($
x'$
x&$
x%$
x$$
x#$
x"$
x!$
x~#
x}#
x|#
bx {#
bx z#
bx y#
bx x#
xw#
xv#
xu#
xt#
xs#
xr#
xq#
xp#
xo#
xn#
xm#
bx l#
bx k#
bx j#
bx i#
bx h#
bx g#
bx f#
bx e#
b0 d#
bx c#
bx b#
bx a#
bx `#
bx _#
bx ^#
bx ]#
x\#
bx [#
bx Z#
bx Y#
bx X#
bx W#
bx V#
bx U#
bx T#
bx S#
bx R#
bx Q#
bx P#
bx O#
xN#
bx M#
xL#
bx K#
bx J#
bx I#
bx H#
bx G#
bx F#
bx E#
bx D#
bx C#
bx B#
bx A#
bx @#
bx ?#
bx >#
bx =#
bx <#
bx ;#
bx :#
x9#
x8#
x7#
bx 6#
x5#
bx 4#
bx 3#
bx 2#
bx 1#
bx 0#
bx /#
bx .#
b0x -#
b0x ,#
x+#
x*#
x)#
x(#
bx '#
bx &#
bx %#
bx $#
bx ##
b0 "#
bx !#
bx ~"
bx }"
bx |"
bx {"
bx z"
bx y"
bx x"
bx w"
bx s"
bx r"
bx q"
bx p"
xo"
xn"
xm"
xl"
bx k"
bx j"
xi"
xh"
bx g"
bx f"
bx e"
xd"
xc"
xb"
xa"
x`"
x_"
x^"
x]"
x\"
x["
xZ"
xY"
xX"
xW"
xV"
xU"
xT"
xS"
bx R"
bx Q"
bx P"
bx O"
bx N"
bx M"
bx L"
bx K"
bx J"
bx I"
bx H"
bx G"
bx F"
bx E"
bx D"
bx C"
bx B"
bx A"
x@"
x?"
x>"
x="
x<"
b0 ;"
bx :"
bx 9"
x8"
bx 7"
bx 6"
bx 5"
bx 4"
bx 3"
x2"
bx 1"
bx 0"
bx /"
bx ."
bx -"
bx ,"
bx +"
bx *"
bx )"
bx ("
bx '"
bx &"
x%"
x$"
x#"
x""
x!"
x~
x}
bx |
b0 {
bx z
bx y
bx x
bx w
xv
xu
xr
bx q
bx p
bx o
bx n
bx m
bx l
xk
xj
b0 i
0h
b0 g
bx f
xe
bx d
bx c
bx b
bx a
x]
bx \
bx [
bx Z
bx Y
bx X
bx W
bx V
xU
xT
xS
xR
0Q
xP
bx O
bx N
xM
bx L
bx K
bx J
bx I
xH
xG
bx F
bx E
bx D
xC
xB
bx A
bx @
bx ?
bx >
bx =
bx <
b0 ;
x:
x9
bx 8
bx 7
06
b0 5
14
03
bx 2
bx 1
x0
bx /
bx .
x-
bx ,
bx +
bx *
bx )
x(
x'
x&
x%
bx $
x#
0"
b0 !
$end
#175
bx00 ,
bx00 @
bx00 \
bx00 8$
b0 Y
b0 Z
b0 W
b0 2
b0 J
b0 [
b0 k"
b0 _$
b0 :"
b0 ##
b0 R#
b100000 7$
b10 d
b100 c
b10 x
b100 w
13
#210
b10011000100100 b$
b11111111111111100111101101010100 c$
0m$
b0 k$
b0 i$
b0 o$
0-
0l$
b0 .
b0 a$
b0 j$
b0 h$
b0 n$
1Q
1h
04
#350
0%
b0 [$
bx00 A$
b1000000000000 ]$
b1000000000000 J$
03
#525
0L#
0h"
1""
1N#
0<"
b10 +"
1#"
0~
b10 ."
1\#
0`"
0d"
b1 q"
b1 B#
b1 z#
b0 Q"
b0 ]#
b0 ^#
0j
1B
1k
b0 |"
b0 O#
b0 [#
b0 y"
0e
1@"
1o"
b0 3"
15#
b0 D"
b0 ?#
b0 6$
b0 G"
b0 @#
b0 5$
0m"
0V"
0Y"
0\"
0($
0|#
b0 D
b0 m
b0 z
b0 n
1r
b0 o
b0 +
b0 ?
b0 q
b0 K$
b0 l
b0 ,#
b0 -#
b0 g"
b0 2#
b0 f"
b0 1#
09#
b0 =#
b0 :#
b0 <#
b0 ;#
17#
b0 4#
18#
b0 3#
b0 4$
b0 3$
b10011 y#
b0 6"
b0 >#
b0 0$
0}#
0$$
0+$
0*$
0~#
0'
0P
b0 ,
b0 @
b0 \
b0 8$
0M
b0 E
b0 p
b0 e"
0+#
0)#
0G
0(#
0*#
b0 '"
0i"
1C
0}
b10011 7"
b10011 -$
b10011 /$
0'$
0,$
0#$
0!$
0"$
0)$
0&$
0%$
1v
b0 $
b0 <
b0 O
b0 9$
b0 1"
b0 S#
b0 b
0(
0#
b10 &"
b1 {"
0U
0T
0S
0R
0%"
b100 N"
b100 }"
0n#
0p#
0o#
0!"
b10000000000000001101111 .$
02"
0:
0u
b0 I
b0 X
b0 y
1]
b0 a
b10 K"
b0 /
b0 A
b0 |
b0 ^$
b0 w"
b0 M#
b0 Z#
b0 x"
b0 z"
b0 H"
b0 0#
b0 Y#
b0 1$
0S"
0="
0a"
0]"
b0 J"
b0 %#
b0 '#
b0 U#
00
0X"
0H
0["
0U"
0?"
0c"
0_"
b0 I"
b0 !#
b0 6#
b0 E#
b0 O"
b0 D#
0n"
b0 p"
b0 C#
b0 k#
0W"
0Z"
0T"
0>"
0l"
0b"
0^"
08"
b0 M"
b0 A#
b0 P#
b10011 4"
b10011 Q#
b10011 {#
b10 x
b100 w
b10 d
b100 c
b100000 7$
13
#700
0E$
b0 I$
b0 F$
b0 A$
0G$
0D$
b0 T$
0W$
b1000000000000 J$
b1000000000000 ]$
03
#875
b100000 7$
b10 d
b100 c
b10 x
b100 w
13
#1050
0&
b0 H$
b1000000000000 ]$
b1000000000000 J$
03
#1225
09
b10 x
b100 w
b10 d
b100 c
b100000 7$
13
#1400
b1000000000000 J$
b1000000000000 ]$
03
#1575
b100000 7$
b10 d
b100 c
b10 x
b100 w
13
#1750
b1000000000000 ]$
b1000000000000 J$
03
#1925
b10 x
b100 w
b10 d
b100 c
b100000 7$
13
#2100
b1000000000000 J$
b1000000000000 ]$
03
#2275
b100000 7$
b10 d
b100 c
b10 x
b100 w
13
#2450
b1000000000000 ]$
b1000000000000 J$
03
#2625
b10 x
b100 w
b10 d
b100 c
b100000 7$
13
#2800
b1000000000000 J$
b1000000000000 ]$
03
#2975
b100000 7$
b10 d
b100 c
b10 x
b100 w
13
#3150
b1000000000000 ]$
b1000000000000 J$
03
#3325
b10 x
b100 w
b10 d
b100 c
b100000 7$
13
#3335
0Q
0h
14
#3500
b1000000000000 J$
b1000000000000 ]$
03
#3675
1'
1u
b100000 7$
b10 d
b100 c
b10 x
b100 w
13
#3850
b1 \$
1W$
b1000000000000 ]$
b1000000000000 J$
03
#4025
b10 x
b100 w
b10 d
b100 c
b100000 7$
13
#4200
b1 [$
b1000000000000 J$
b1000000000000 ]$
03
#4375
b100000 7$
b10 d
b100 c
b10 x
b100 w
13
#4550
b1000000000000 ]$
b1000000000000 J$
03
#4725
b10 x
b100 w
b10 d
b100 c
b100000 7$
13
#4900
b1000000000000 J$
b1000000000000 ]$
03
#5075
b100000 7$
b10 d
b100 c
b10 x
b100 w
13
#5250
b1000000000000 ]$
b1000000000000 J$
03
#5425
b10 x
b100 w
b10 d
b100 c
b100000 7$
13
#5600
b1000000000000 J$
b1000000000000 ]$
03
#5775
b100000 7$
b10 d
b100 c
b10 x
b100 w
13
#5950
b1000000000000 ]$
b1000000000000 J$
03
#6125
b10 x
b100 w
b10 d
b100 c
b100000 7$
13
#6300
b1000000000000 J$
b1000000000000 ]$
03
#6475
b100000 7$
b10 d
b100 c
b10 x
b100 w
13
#6650
b1000000000000 ]$
b1000000000000 J$
03
#6825
b10 x
b100 w
b10 d
b100 c
b100000 7$
13
#7000
b1000000000000 J$
b1000000000000 ]$
03
#7175
b100000 7$
b10 d
b100 c
b10 x
b100 w
13
#7350
b1000000000000 ]$
b1000000000000 J$
03
#7525
b10 x
b100 w
b10 d
b100 c
b100000 7$
13
#7700
b1000000000000 J$
b1000000000000 ]$
03
#7875
b100000 7$
b10 d
b100 c
b10 x
b100 w
13
#8050
b1000000000000 ]$
b1000000000000 J$
03
#8225
b10 x
b100 w
b10 d
b100 c
b100000 7$
13
#8400
b1000000000000 J$
b1000000000000 ]$
03
#8575
b100000 7$
b10 d
b100 c
b10 x
b100 w
13
#8700
b10 \$
#8750
b10011000000011101000101111111000100110000000111110000011111110001001100000000000000000000000000010011000000000000000000000000 V$
1X$
b11 \$
b10 [$
b1000000000000 ]$
b1000000000000 J$
03
#8925
b10 x
b100 w
b10 d
b100 c
b100000 7$
13
#9100
0X$
b0 \$
b10011000000011101000101111111000100110000000111110000011111110001001100000000000000000000000000010011000000000000000000000000 )
b10011000000011101000101111111000100110000000111110000011111110001001100000000000000000000000000010011000000000000000000000000 =
b10011000000011101000101111111000100110000000111110000011111110001001100000000000000000000000000010011000000000000000000000000 U$
1%
b11 [$
b1000000000000 J$
b1000000000000 ]$
03
